Name,Date,Open,High,Low,Close,Volume
KRUK,20110510,39.77,41.90,39.11,41.71,927676
KRUK,20110511,41.61,41.61,41.01,41.01,55258
KRUK,20110512,40.70,41.50,39.83,41.00,76529
KRUK,20110513,40.60,40.68,40.40,40.53,12443
KRUK,20110516,40.55,40.90,40.48,40.79,39808
KRUK,20110517,40.70,40.78,40.40,40.41,69461
KRUK,20110518,40.50,40.63,40.41,40.50,7886
KRUK,20110519,40.50,40.56,39.45,40.55,23489
KRUK,20110520,40.58,40.58,40.23,40.50,21690
KRUK,20110523,40.51,40.51,40.22,40.30,39410
KRUK,20110524,40.00,40.50,39.60,40.50,41476
KRUK,20110525,40.40,41.00,40.40,41.00,9212
KRUK,20110526,40.75,41.40,40.70,40.70,33342
KRUK,20110527,40.41,40.80,40.41,40.75,9943
KRUK,20110530,40.46,40.60,40.10,40.11,15048
KRUK,20110531,40.04,41.68,39.99,41.46,60446
KRUK,20110601,41.46,41.46,40.50,41.35,1527
KRUK,20110602,41.30,41.30,40.50,41.19,6055
KRUK,20110603,40.55,41.15,40.50,40.55,5806
KRUK,20110606,40.41,41.00,40.20,41.00,38237
KRUK,20110607,40.50,41.00,40.50,41.00,54230
KRUK,20110608,40.50,41.00,40.50,41.00,118074
KRUK,20110609,40.80,40.80,40.50,40.50,37810
KRUK,20110610,40.40,40.50,40.10,40.50,56822
KRUK,20110613,40.40,40.60,40.40,40.55,21872
KRUK,20110614,40.04,40.31,40.04,40.31,57814
KRUK,20110615,40.01,40.50,40.01,40.48,11765
KRUK,20110616,38.20,40.05,38.20,40.00,16773
KRUK,20110617,39.85,40.00,39.40,40.00,42272
KRUK,20110620,38.50,40.00,38.50,39.70,96823
KRUK,20110621,39.50,40.00,39.50,39.70,112899
KRUK,20110622,39.51,40.49,39.51,40.00,3067
KRUK,20110624,39.99,40.20,39.81,40.00,11650
KRUK,20110627,39.92,40.10,39.90,40.00,52858
KRUK,20110628,39.20,40.00,39.20,40.00,2625
KRUK,20110629,39.90,40.20,39.90,40.20,8079
KRUK,20110630,40.50,40.50,40.00,40.50,11642
KRUK,20110701,41.00,42.95,41.00,42.81,35054
KRUK,20110704,42.75,43.50,42.75,43.50,23526
KRUK,20110705,43.65,43.70,43.02,43.30,12452
KRUK,20110706,43.16,43.30,42.20,43.30,8675
KRUK,20110707,43.30,43.80,42.64,43.50,14366
KRUK,20110708,43.30,43.75,42.05,42.05,5135
KRUK,20110711,42.02,42.90,41.97,42.10,4513
KRUK,20110712,42.72,42.72,39.58,41.98,42686
KRUK,20110713,41.00,42.50,41.00,42.00,6426
KRUK,20110714,41.11,41.99,41.11,41.98,16962
KRUK,20110715,41.98,41.98,41.50,41.80,623
KRUK,20110718,41.12,41.12,40.50,40.90,2219
KRUK,20110719,40.70,40.90,40.02,40.50,2480
KRUK,20110720,40.50,40.85,40.13,40.14,1959
KRUK,20110721,40.40,40.40,39.51,40.00,4036
KRUK,20110722,40.01,40.85,40.01,40.85,51001
KRUK,20110725,40.97,40.97,40.30,40.95,2589
KRUK,20110726,40.96,41.49,40.80,41.00,3920
KRUK,20110727,41.00,41.20,40.50,40.50,2555
KRUK,20110728,40.50,40.50,39.70,40.10,6685
KRUK,20110729,40.71,40.71,39.91,40.70,23259
KRUK,20110801,40.01,40.25,39.39,39.50,49196
KRUK,20110802,39.85,39.85,39.40,39.40,21034
KRUK,20110803,39.80,39.80,37.50,38.60,33219
KRUK,20110804,37.00,38.90,37.00,37.20,33969
KRUK,20110805,32.00,37.50,32.00,36.80,27161
KRUK,20110808,34.10,36.50,34.00,34.90,24499
KRUK,20110809,34.00,34.05,30.71,33.50,141482
KRUK,20110810,34.40,35.00,31.11,32.00,67592
KRUK,20110811,32.50,34.00,31.70,34.00,12416
KRUK,20110812,35.45,35.90,34.50,35.73,3287
KRUK,20110816,36.80,36.80,34.30,35.40,8495
KRUK,20110817,36.67,36.67,35.00,35.00,1950
KRUK,20110818,34.98,35.83,33.20,33.20,9984
KRUK,20110819,33.20,34.59,33.20,34.57,3650
KRUK,20110822,35.00,35.60,34.50,35.50,934
KRUK,20110823,35.70,35.70,35.00,35.00,1629
KRUK,20110824,34.80,35.00,34.80,35.00,438
KRUK,20110825,35.10,36.00,35.10,35.50,798
KRUK,20110826,36.34,36.34,35.50,36.00,1183
KRUK,20110829,36.40,36.80,35.50,36.80,52361
KRUK,20110830,36.80,36.80,36.40,36.60,27948
KRUK,20110831,37.82,39.30,36.80,37.70,28818
KRUK,20110901,38.50,38.50,36.00,37.49,1818
KRUK,20110902,36.75,37.51,36.75,37.37,4878
KRUK,20110905,36.50,37.00,35.70,37.00,2423
KRUK,20110906,36.98,37.30,36.60,37.30,71357
KRUK,20110907,37.30,37.96,37.25,37.60,619
KRUK,20110908,40.00,40.00,39.15,40.00,313916
KRUK,20110909,39.98,40.10,38.02,39.60,14498
KRUK,20110912,39.60,39.60,37.65,38.10,4280
KRUK,20110913,38.10,39.01,37.50,38.00,3128
KRUK,20110914,38.00,38.10,38.00,38.00,15113
KRUK,20110915,38.80,38.80,38.41,38.46,1255
KRUK,20110916,38.01,39.48,38.01,39.45,1711
KRUK,20110919,39.50,39.50,38.30,39.10,64899
KRUK,20110920,39.10,39.70,39.10,39.70,2529
KRUK,20110921,39.50,40.86,39.50,40.40,2989
KRUK,20110922,40.00,40.00,39.15,39.30,6193
KRUK,20110923,38.32,39.84,38.32,38.80,117613
KRUK,20110926,39.50,40.32,39.18,40.32,2473
KRUK,20110927,40.30,42.00,40.30,41.50,13563
KRUK,20110928,41.60,43.21,41.60,43.10,59905
KRUK,20110929,43.00,43.87,43.00,43.87,9955
KRUK,20110930,42.50,44.32,42.50,43.00,63009
KRUK,20111003,43.00,43.00,41.10,42.19,7442
KRUK,20111004,42.00,42.00,40.33,40.40,10903
KRUK,20111005,41.00,42.21,40.90,42.19,5977
KRUK,20111006,42.28,43.00,42.10,42.50,665
KRUK,20111007,42.21,42.21,41.85,42.00,6222
KRUK,20111010,42.00,42.00,41.10,42.00,9041
KRUK,20111011,42.28,42.30,41.80,42.30,41340
KRUK,20111012,42.40,42.70,41.56,42.70,33058
KRUK,20111013,42.70,43.98,41.91,42.40,6264
KRUK,20111014,42.03,42.40,42.00,42.10,40834
KRUK,20111017,43.30,43.30,42.00,42.00,1398
KRUK,20111018,41.52,42.00,40.75,42.00,1828
KRUK,20111019,42.00,42.00,41.20,41.71,5548
KRUK,20111020,41.50,42.00,41.01,42.00,4143
KRUK,20111021,41.61,41.61,41.20,41.20,1241
KRUK,20111024,41.05,41.75,40.31,41.75,18711
KRUK,20111025,42.00,42.23,41.30,42.12,591
KRUK,20111026,41.99,42.12,40.51,42.09,1098
KRUK,20111027,42.00,42.70,41.50,42.70,3540
KRUK,20111028,43.00,43.00,41.82,41.82,551
KRUK,20111031,41.15,42.97,41.15,42.40,6352
KRUK,20111102,41.00,42.20,40.53,42.00,4614
KRUK,20111103,42.20,42.50,41.50,42.50,1337
KRUK,20111104,41.80,42.40,41.80,42.40,4827
KRUK,20111107,42.29,42.30,41.90,42.25,215282
KRUK,20111108,42.40,42.98,42.10,42.80,1996
KRUK,20111109,42.70,42.70,41.82,42.00,1002
KRUK,20111110,41.50,41.90,41.00,41.79,515
KRUK,20111114,41.95,42.39,41.07,41.50,1926
KRUK,20111115,41.20,41.50,38.15,41.50,5429
KRUK,20111116,41.54,42.50,41.54,42.50,2386
KRUK,20111117,42.50,42.60,41.70,42.50,1033
KRUK,20111118,42.06,42.06,40.65,42.00,8641
KRUK,20111121,41.50,41.50,40.50,40.51,1651
KRUK,20111122,40.50,41.00,40.50,41.00,9630
KRUK,20111123,41.50,41.50,40.22,40.51,65866
KRUK,20111124,40.80,41.30,40.80,40.97,964
KRUK,20111125,40.60,42.40,40.51,41.95,10487
KRUK,20111128,40.70,41.70,40.70,41.70,3527
KRUK,20111129,41.01,41.70,41.01,41.69,2441
KRUK,20111130,41.40,44.00,41.40,44.00,59710
KRUK,20111201,43.01,44.00,42.51,42.70,31089
KRUK,20111202,43.84,43.84,42.74,42.95,1560
KRUK,20111205,42.80,43.50,42.51,42.90,774
KRUK,20111206,43.00,43.00,42.60,42.60,459
KRUK,20111207,42.89,42.89,42.30,42.31,2011
KRUK,20111208,42.13,43.00,41.69,43.00,6163
KRUK,20111209,42.60,43.40,41.85,42.80,633
KRUK,20111212,42.99,43.39,42.99,42.99,7428
KRUK,20111213,42.60,42.80,42.51,42.80,424
KRUK,20111214,43.00,43.19,43.00,43.00,670
KRUK,20111215,43.10,43.10,42.20,42.20,887
KRUK,20111216,42.20,42.30,42.20,42.30,58
KRUK,20111219,43.00,43.09,42.46,42.46,23480
KRUK,20111220,42.20,43.20,42.20,42.53,173932
KRUK,20111221,43.15,43.70,43.00,43.50,107038
KRUK,20111222,43.00,43.10,42.71,43.00,1088
KRUK,20111223,43.20,43.20,43.00,43.00,6733
KRUK,20111227,42.30,43.10,42.20,43.00,3634
KRUK,20111228,43.40,44.00,43.40,43.85,2520
KRUK,20111229,43.89,43.89,43.52,43.52,28854
KRUK,20111230,43.50,43.74,43.06,43.72,471
KRUK,20120102,43.82,43.82,43.14,43.28,1620
KRUK,20120103,43.50,43.78,43.00,43.50,50590
KRUK,20120104,43.50,43.50,43.30,43.30,206
KRUK,20120105,43.30,43.50,43.10,43.10,1840
KRUK,20120109,43.01,43.50,43.00,43.50,2226
KRUK,20120110,43.50,43.50,42.80,42.80,1724
KRUK,20120111,42.80,43.00,42.15,42.15,1853
KRUK,20120112,42.00,43.06,41.30,42.50,6100
KRUK,20120113,43.47,43.47,42.50,42.91,7857
KRUK,20120116,42.40,42.65,42.40,42.62,18337
KRUK,20120117,42.69,42.70,42.45,42.67,3036
KRUK,20120118,43.47,43.47,42.35,43.00,4179
KRUK,20120119,43.00,43.00,42.50,42.80,39898
KRUK,20120120,42.18,43.10,42.18,43.10,1026
KRUK,20120123,42.51,42.84,42.46,42.84,1682
KRUK,20120124,42.90,43.05,42.90,43.00,5060
KRUK,20120125,42.75,42.81,42.41,42.81,106
KRUK,20120126,42.42,43.00,42.42,42.65,45511
KRUK,20120127,42.99,43.05,42.70,43.05,7970
KRUK,20120130,42.53,43.00,42.21,43.00,1807
KRUK,20120131,42.99,43.00,42.21,42.38,1264
KRUK,20120201,42.70,42.90,42.62,42.70,2561
KRUK,20120202,42.70,42.71,42.60,42.60,133927
KRUK,20120203,42.50,42.85,42.00,42.85,3317
KRUK,20120206,42.90,43.95,42.86,43.50,4980
KRUK,20120207,43.95,46.50,43.90,46.50,20084
KRUK,20120208,47.20,48.50,46.01,46.50,8577
KRUK,20120209,45.85,46.59,45.30,45.30,4300
KRUK,20120210,45.28,45.30,44.31,44.98,2078
KRUK,20120213,45.30,45.99,44.55,45.00,8083
KRUK,20120214,45.01,45.08,44.98,45.00,2318
KRUK,20120215,45.00,45.99,45.00,45.97,28110
KRUK,20120216,45.96,46.90,45.80,46.80,2169
KRUK,20120217,46.80,46.90,46.46,46.60,5004
KRUK,20120220,46.65,46.90,46.11,46.89,3027
KRUK,20120221,46.90,47.00,46.52,47.00,1706
KRUK,20120222,47.00,47.10,45.31,45.48,5779
KRUK,20120223,45.40,46.86,45.40,46.30,3083
KRUK,20120224,46.00,46.59,46.00,46.50,1117
KRUK,20120227,46.40,47.90,46.40,47.63,6803
KRUK,20120228,47.63,48.00,46.90,47.60,19594
KRUK,20120229,47.50,47.95,46.65,47.10,1678
KRUK,20120301,46.70,46.98,46.01,46.88,1634
KRUK,20120302,47.49,47.49,46.55,46.55,2740
KRUK,20120305,46.71,47.19,46.70,47.00,974
KRUK,20120306,46.72,46.72,44.01,45.10,5469
KRUK,20120307,45.10,45.80,45.01,45.80,27745
KRUK,20120308,45.99,47.70,45.99,47.44,4061
KRUK,20120309,47.55,47.55,47.00,47.29,468
KRUK,20120312,47.59,47.59,45.80,47.34,3953
KRUK,20120313,47.45,47.45,45.78,45.80,24388
KRUK,20120314,46.98,47.42,45.82,47.02,88666
KRUK,20120315,47.20,48.10,47.20,47.90,6902
KRUK,20120316,48.00,48.33,47.50,47.88,3165
KRUK,20120319,46.80,47.60,46.20,46.20,3419
KRUK,20120320,46.40,47.49,46.20,47.29,3610
KRUK,20120321,47.50,48.00,46.86,48.00,11677
KRUK,20120322,48.19,49.50,48.19,48.95,19229
KRUK,20120323,49.97,50.90,49.50,50.40,14133
KRUK,20120326,50.50,50.75,50.20,50.50,62050
KRUK,20120327,50.40,50.40,50.00,50.15,317243
KRUK,20120328,50.10,50.90,50.00,50.90,15555
KRUK,20120329,50.90,51.50,49.66,49.71,53799
KRUK,20120330,49.71,50.45,49.71,50.20,23222
KRUK,20120402,50.20,51.90,48.51,49.01,23292
KRUK,20120403,49.63,50.60,49.10,49.55,25378
KRUK,20120404,50.00,50.00,48.60,48.60,12341
KRUK,20120405,48.61,49.99,48.61,49.66,23234
KRUK,20120410,50.40,50.40,48.74,48.77,6415
KRUK,20120411,48.77,50.00,47.50,49.50,36688
KRUK,20120412,49.99,51.60,49.99,51.60,9516
KRUK,20120413,52.00,52.00,51.00,51.00,14907
KRUK,20120416,50.50,51.50,50.50,51.10,3699
KRUK,20120417,51.30,51.30,50.50,51.10,1942
KRUK,20120418,51.15,51.30,50.00,51.00,7452
KRUK,20120419,51.00,51.00,50.00,50.00,4053
KRUK,20120420,50.00,50.00,49.04,49.80,3922
KRUK,20120423,49.95,49.95,47.00,47.00,10265
KRUK,20120424,47.20,48.59,47.20,47.70,16476
KRUK,20120425,48.40,48.50,48.00,48.00,15316
KRUK,20120426,48.59,48.59,48.10,48.20,6741
KRUK,20120427,48.50,48.99,48.25,48.30,3182
KRUK,20120430,48.90,48.90,48.30,48.30,1524
KRUK,20120502,48.30,48.30,47.20,47.98,3568
KRUK,20120504,47.30,47.96,47.00,47.85,1805
KRUK,20120507,46.21,47.65,46.21,47.40,3773
KRUK,20120508,48.18,48.50,48.17,48.50,1913
KRUK,20120509,48.45,48.80,47.90,48.60,1229
KRUK,20120510,48.70,49.49,47.90,48.90,481
KRUK,20120511,48.90,49.10,48.05,49.10,1303
KRUK,20120514,49.50,49.50,48.11,48.50,800
KRUK,20120515,48.01,48.50,47.80,47.80,22064
KRUK,20120516,47.70,47.70,45.00,47.05,12599
KRUK,20120517,47.00,47.00,44.96,45.00,11902
KRUK,20120518,43.99,45.95,43.99,45.85,3607
KRUK,20120521,46.17,46.57,46.17,46.50,744
KRUK,20120522,46.60,47.45,45.25,45.95,2444
KRUK,20120523,45.80,45.90,45.80,45.90,20180
KRUK,20120524,45.00,45.50,45.00,45.50,680
KRUK,20120525,45.01,45.70,45.00,45.70,1149
KRUK,20120528,45.35,46.00,45.35,46.00,188
KRUK,20120529,45.11,45.90,45.11,45.11,142
KRUK,20120530,45.00,45.01,45.00,45.00,1051
KRUK,20120531,44.60,46.70,44.60,46.10,7960
KRUK,20120601,45.99,46.50,45.99,45.99,597
KRUK,20120604,45.15,45.99,45.10,45.15,2460
KRUK,20120605,45.15,45.87,44.06,45.70,1571
KRUK,20120606,44.15,46.10,44.15,46.10,1180
KRUK,20120608,46.14,46.68,45.33,45.99,1100
KRUK,20120611,46.20,46.97,46.20,46.81,4358
KRUK,20120612,46.99,47.08,46.80,47.08,40934
KRUK,20120613,47.00,47.08,46.70,46.70,11905
KRUK,20120614,46.59,46.59,46.06,46.11,11820
KRUK,20120615,45.60,46.64,45.03,45.76,254
KRUK,20120618,46.00,46.79,45.81,45.81,6102
KRUK,20120619,45.90,45.90,44.86,45.00,10803
KRUK,20120620,45.00,45.00,44.26,44.95,1087
KRUK,20120621,44.95,45.81,44.60,45.00,24350
KRUK,20120622,45.00,45.00,44.21,45.00,1559
KRUK,20120625,45.00,45.00,44.60,44.99,936
KRUK,20120626,44.53,45.35,44.50,45.35,2832
KRUK,20120627,45.20,45.20,44.75,45.20,410
KRUK,20120628,45.00,45.00,44.65,45.00,19326
KRUK,20120629,45.00,46.30,44.51,46.30,3198
KRUK,20120702,45.60,46.91,45.60,46.91,3101
KRUK,20120703,46.85,46.87,46.01,46.25,42991
KRUK,20120704,46.88,46.88,46.00,46.00,1748
KRUK,20120705,46.30,46.94,46.30,46.50,2670
KRUK,20120706,46.50,46.85,45.51,46.85,5239
KRUK,20120709,46.89,46.89,46.00,46.05,617
KRUK,20120710,46.30,46.87,46.03,46.03,1228
KRUK,20120711,46.03,46.84,45.95,45.95,849
KRUK,20120712,45.95,45.95,45.16,45.40,244
KRUK,20120713,45.50,45.50,44.80,45.00,2193
KRUK,20120716,44.62,45.50,44.62,45.00,95
KRUK,20120717,44.50,45.85,44.50,45.85,1727
KRUK,20120718,45.85,45.85,45.11,45.80,30180
KRUK,20120719,45.21,45.30,45.06,45.10,7023
KRUK,20120720,44.51,45.38,44.51,45.36,786
KRUK,20120723,45.15,45.15,42.00,43.70,12957
KRUK,20120724,43.99,44.44,43.99,44.00,4197
KRUK,20120725,44.00,44.35,44.00,44.35,696
KRUK,20120726,44.00,44.00,44.00,44.00,732
KRUK,20120727,44.08,44.90,44.08,44.90,434
KRUK,20120730,45.00,45.10,44.90,45.00,1386
KRUK,20120731,44.95,45.39,44.50,45.39,4477
KRUK,20120801,45.45,45.45,44.80,44.80,599
KRUK,20120802,44.21,44.25,44.00,44.25,26750
KRUK,20120803,44.25,45.50,44.10,45.49,4597
KRUK,20120806,44.80,45.65,44.80,45.50,1183
KRUK,20120807,44.81,45.35,44.80,45.00,1259
KRUK,20120808,45.00,45.50,45.00,45.50,33397
KRUK,20120809,44.37,45.50,44.00,45.49,7967
KRUK,20120810,45.52,45.52,45.00,45.00,486
KRUK,20120813,45.00,45.00,44.65,44.65,227
KRUK,20120814,44.65,45.40,44.60,45.40,480
KRUK,20120816,44.55,45.00,44.55,44.67,1922
KRUK,20120817,44.62,45.00,44.62,44.64,6239
KRUK,20120820,44.55,45.00,44.55,45.00,2187
KRUK,20120821,45.10,46.20,45.10,46.20,2301
KRUK,20120822,45.80,46.45,45.80,46.00,1894
KRUK,20120823,46.28,46.28,46.00,46.00,2685
KRUK,20120824,45.50,45.70,45.35,45.70,819
KRUK,20120827,45.80,46.30,45.00,46.29,2009
KRUK,20120828,46.29,46.30,45.50,45.50,461
KRUK,20120829,45.21,46.31,45.21,46.20,2613
KRUK,20120830,46.20,46.20,46.00,46.00,5618
KRUK,20120831,46.10,47.00,46.10,47.00,3552
KRUK,20120903,46.16,46.30,46.02,46.09,1061
KRUK,20120904,46.01,46.39,45.85,46.00,15981
KRUK,20120905,46.00,46.00,45.00,45.40,1369
KRUK,20120906,44.56,45.09,44.50,45.09,37642
KRUK,20120907,45.10,45.48,44.55,44.80,11264
KRUK,20120910,44.45,45.00,44.45,44.56,6285
KRUK,20120911,44.50,44.99,44.50,44.99,1268
KRUK,20120912,44.99,45.94,44.56,44.56,1119
KRUK,20120913,44.58,44.66,44.58,44.60,20730
KRUK,20120914,45.88,45.89,44.61,45.89,13067
KRUK,20120917,46.00,46.00,44.71,44.74,5183
KRUK,20120918,45.30,45.30,44.62,45.00,756
KRUK,20120919,45.10,45.10,44.52,45.00,404
KRUK,20120920,45.00,45.44,44.20,45.20,33324
KRUK,20120921,45.29,45.29,44.20,44.20,3397
KRUK,20120924,44.99,44.99,44.30,44.30,8722
KRUK,20120925,44.70,44.70,44.70,44.70,597
KRUK,20120926,44.89,44.90,44.60,44.70,40367
KRUK,20120927,44.50,44.79,44.35,44.35,320
KRUK,20120928,44.35,44.78,44.30,44.75,29752
KRUK,20121001,44.75,44.75,44.75,44.75,3
KRUK,20121002,44.75,45.05,44.60,45.05,2211
KRUK,20121003,45.00,45.14,44.80,45.14,956
KRUK,20121004,45.15,46.00,45.15,45.51,58224
KRUK,20121005,45.60,45.60,45.22,45.22,1662
KRUK,20121008,44.91,45.00,44.90,45.00,55558
KRUK,20121009,45.20,45.25,45.10,45.12,71711
KRUK,20121010,45.10,45.20,44.70,45.19,133599
KRUK,20121011,44.55,44.90,44.55,44.90,14252
KRUK,20121012,44.90,45.00,44.90,45.00,79
KRUK,20121015,45.00,45.00,44.55,44.60,2253
KRUK,20121016,44.60,44.99,44.60,44.99,5911
KRUK,20121017,44.60,45.00,44.60,44.60,6065
KRUK,20121018,44.60,44.70,44.60,44.60,3115
KRUK,20121019,44.90,44.97,44.30,44.60,38475
KRUK,20121022,44.50,44.50,44.31,44.40,218
KRUK,20121023,44.30,44.30,44.10,44.25,1009
KRUK,20121024,44.10,44.20,43.50,44.20,863
KRUK,20121025,44.20,45.00,44.20,44.60,5036
KRUK,20121026,44.50,44.60,43.71,43.71,4896
KRUK,20121029,44.60,44.60,43.80,43.81,1095
KRUK,20121030,44.00,44.90,44.00,44.50,25451
KRUK,20121031,44.97,44.97,43.60,43.60,2729
KRUK,20121102,43.61,43.66,43.61,43.66,777
KRUK,20121105,43.66,44.25,43.50,43.50,1646
KRUK,20121106,43.50,43.90,43.43,43.45,277
KRUK,20121107,43.30,43.59,43.00,43.58,1383
KRUK,20121108,43.00,43.00,42.40,42.90,22714
KRUK,20121109,42.50,42.90,42.42,42.45,810
KRUK,20121112,42.85,44.00,42.85,43.00,1593
KRUK,20121113,42.99,43.44,42.70,42.71,706
KRUK,20121114,42.71,45.00,42.71,45.00,7609
KRUK,20121115,45.00,45.00,43.90,44.10,727
KRUK,20121116,44.99,44.99,44.05,44.89,9514
KRUK,20121119,45.00,45.00,44.60,44.80,12112
KRUK,20121120,44.80,44.80,44.05,44.50,25651
KRUK,20121121,44.50,44.60,44.00,44.10,707
KRUK,20121122,44.46,44.46,43.46,43.46,740
KRUK,20121123,43.31,44.20,43.11,43.99,397
KRUK,20121126,43.13,44.00,43.11,43.75,4092
KRUK,20121127,43.99,43.99,43.52,43.99,158
KRUK,20121128,43.98,43.99,43.51,43.99,254
KRUK,20121129,43.99,44.00,43.41,43.43,4056
KRUK,20121130,43.80,43.85,43.50,43.80,1075
KRUK,20121203,43.80,43.80,43.50,43.70,2233
KRUK,20121204,43.50,44.00,43.50,43.59,632
KRUK,20121205,43.20,43.70,43.20,43.55,1955
KRUK,20121206,43.12,43.82,43.12,43.36,3260
KRUK,20121207,43.48,43.50,43.00,43.02,38625
KRUK,20121210,43.17,43.17,43.02,43.03,367
KRUK,20121211,43.01,43.50,42.87,42.91,1095
KRUK,20121212,42.75,42.75,42.42,42.55,4765
KRUK,20121213,42.60,43.10,42.57,43.10,562
KRUK,20121214,43.59,43.90,43.00,43.88,4576
KRUK,20121217,43.98,44.10,43.91,44.10,3480
KRUK,20121218,44.32,44.44,44.32,44.40,988
KRUK,20121219,44.50,45.00,44.40,45.00,93398
KRUK,20121220,45.10,46.19,45.10,46.15,9252
KRUK,20121221,46.00,46.38,44.50,44.50,13682
KRUK,20121227,44.50,45.50,44.00,44.50,8449
KRUK,20121228,44.35,44.50,44.02,44.06,1687
KRUK,20130102,44.10,45.00,44.00,45.00,5601
KRUK,20130103,45.50,45.50,44.95,45.00,6593
KRUK,20130104,45.00,45.30,45.00,45.00,7630
KRUK,20130107,45.00,45.30,45.00,45.00,3215
KRUK,20130108,45.01,46.15,45.01,46.00,3897
KRUK,20130109,46.00,46.65,46.00,46.50,2560
KRUK,20130110,46.50,48.50,46.50,48.40,38221
KRUK,20130111,48.60,49.80,48.13,49.70,5974
KRUK,20130114,49.80,50.00,49.70,50.00,1153
KRUK,20130115,49.70,49.70,48.50,48.80,1836
KRUK,20130116,48.15,49.60,48.15,49.60,969
KRUK,20130117,49.21,49.49,49.20,49.49,361
KRUK,20130118,49.49,49.90,49.11,49.90,53637
KRUK,20130121,49.15,49.40,49.12,49.39,2100
KRUK,20130122,49.39,49.84,49.39,49.84,2478
KRUK,20130123,49.80,49.90,48.25,49.50,6892
KRUK,20130124,49.02,49.50,49.00,49.21,12630
KRUK,20130125,49.21,49.80,49.20,49.75,1758
KRUK,20130128,49.50,49.79,49.15,49.70,29435
KRUK,20130129,49.69,49.69,49.55,49.55,5402
KRUK,20130130,49.55,50.00,49.55,50.00,6398
KRUK,20130131,50.00,50.95,50.00,50.30,12377
KRUK,20130201,50.30,50.40,49.50,49.50,3295
KRUK,20130204,50.00,50.30,49.50,49.50,7548
KRUK,20130205,49.90,49.90,49.53,49.60,15193
KRUK,20130206,50.00,50.40,49.55,50.40,6044
KRUK,20130207,51.00,53.00,50.50,52.05,6122
KRUK,20130208,53.00,53.50,52.50,52.50,3281
KRUK,20130211,52.50,53.50,52.50,53.00,4372
KRUK,20130212,53.30,53.45,51.90,51.90,2590
KRUK,20130213,51.90,51.90,51.55,51.75,1378
KRUK,20130214,51.55,52.00,51.55,51.75,2784
KRUK,20130215,51.75,53.40,51.55,53.40,1776
KRUK,20130218,53.40,53.40,52.50,53.35,832
KRUK,20130219,53.35,53.35,48.45,51.00,3547
KRUK,20130220,51.00,51.75,51.00,51.10,10097
KRUK,20130221,51.10,52.15,50.60,51.20,12104
KRUK,20130222,51.20,52.40,51.20,51.35,30446
KRUK,20130225,51.50,53.40,51.50,53.00,4483
KRUK,20130226,53.30,53.40,52.50,53.20,4668
KRUK,20130227,53.10,53.20,52.50,53.10,1121
KRUK,20130228,53.10,54.50,52.70,54.35,4933
KRUK,20130301,53.85,54.90,53.85,54.90,5495
KRUK,20130304,54.90,54.95,52.70,53.20,3449
KRUK,20130305,52.90,54.75,52.90,54.50,3230
KRUK,20130306,54.80,54.80,53.00,54.80,4176
KRUK,20130307,54.80,55.40,54.80,55.20,11989
KRUK,20130308,55.20,55.50,54.30,55.50,8628
KRUK,20130311,55.90,57.45,54.60,57.40,8784
KRUK,20130312,57.10,57.25,56.15,57.05,5867
KRUK,20130313,57.00,57.20,55.60,56.50,1123
KRUK,20130314,55.80,57.10,55.80,57.00,4285
KRUK,20130315,57.00,58.90,55.50,55.50,10634
KRUK,20130318,57.00,58.90,56.00,58.10,43117
KRUK,20130319,58.95,60.05,58.95,60.00,44323
KRUK,20130320,60.00,64.70,60.00,63.90,47171
KRUK,20130321,63.90,66.20,62.50,63.00,13474
KRUK,20130322,60.80,63.00,60.20,62.00,13311
KRUK,20130325,62.00,62.00,59.05,59.90,3845
KRUK,20130326,59.05,59.35,59.00,59.30,2560
KRUK,20130327,59.10,59.30,56.45,58.85,6641
KRUK,20130328,59.00,62.65,58.90,58.90,15032
KRUK,20130402,60.20,63.50,60.00,63.50,11763
KRUK,20130403,62.90,62.90,60.20,60.50,24443
KRUK,20130404,61.60,63.75,61.60,62.00,43090
KRUK,20130405,62.90,62.90,62.00,62.30,6141
KRUK,20130408,62.90,63.00,61.50,62.00,41339
KRUK,20130409,62.85,62.85,61.60,62.00,45029
KRUK,20130410,63.30,63.30,62.05,62.55,33715
KRUK,20130411,62.80,62.90,61.90,62.00,40298
KRUK,20130412,61.80,62.20,61.60,62.00,15515
KRUK,20130415,62.00,62.30,61.65,61.85,11406
KRUK,20130417,61.85,62.00,61.60,61.68,11061
KRUK,20130418,61.81,62.50,61.61,62.40,11526
KRUK,20130419,62.01,62.50,61.81,62.01,10986
KRUK,20130422,61.81,61.99,61.80,61.98,1435
KRUK,20130423,61.80,62.30,61.80,62.00,67195
KRUK,20130424,62.50,62.50,61.80,62.00,5929
KRUK,20130425,62.00,62.00,60.85,61.02,1792
KRUK,20130426,62.05,62.05,61.15,61.80,1371
KRUK,20130429,61.30,61.80,61.30,61.30,2583
KRUK,20130430,61.33,61.70,61.32,61.50,1472
KRUK,20130502,61.37,61.80,61.37,61.50,17359
KRUK,20130506,61.69,62.50,61.50,61.96,7993
KRUK,20130507,62.01,62.49,62.00,62.33,1910
KRUK,20130508,62.90,66.50,62.80,65.00,9977
KRUK,20130509,66.00,67.95,65.50,67.10,18180
KRUK,20130510,66.70,67.79,66.00,66.60,13679
KRUK,20130513,66.35,68.95,66.35,68.39,35563
KRUK,20130514,68.30,68.30,66.36,67.70,12704
KRUK,20130515,67.89,68.07,67.55,67.70,16484
KRUK,20130516,67.70,67.97,67.00,67.70,3918
KRUK,20130517,67.80,67.80,62.00,66.31,71972
KRUK,20130520,66.00,67.00,65.40,66.50,5119
KRUK,20130521,66.45,68.00,66.01,67.50,8791
KRUK,20130522,67.10,69.65,67.10,69.00,17166
KRUK,20130523,68.00,69.00,67.50,69.00,17566
KRUK,20130524,68.51,70.98,66.00,66.35,421944
KRUK,20130527,68.00,68.00,66.55,67.00,12080
KRUK,20130528,67.00,67.00,66.21,66.60,35136
KRUK,20130529,65.13,66.10,63.51,64.30,34103
KRUK,20130531,64.00,64.00,62.11,62.70,115641
KRUK,20130603,62.50,64.90,62.50,64.90,5349
KRUK,20130604,64.90,66.44,64.70,65.10,8091
KRUK,20130605,65.11,66.15,64.50,64.80,11622
KRUK,20130606,65.00,66.05,64.51,64.91,10755
KRUK,20130607,65.00,66.20,64.91,65.20,13135
KRUK,20130610,66.00,66.16,65.31,66.00,108818
KRUK,20130611,66.20,67.00,64.02,66.40,4259
KRUK,20130612,66.82,66.82,65.10,65.90,2040
KRUK,20130613,65.40,66.82,65.00,66.20,1717
KRUK,20130614,66.00,66.80,65.50,66.50,10309
KRUK,20130617,66.50,66.82,65.01,65.30,57288
KRUK,20130618,65.30,66.50,64.41,66.49,5031
KRUK,20130619,66.00,66.45,64.80,65.05,47864
KRUK,20130620,65.00,65.00,63.22,63.31,8128
KRUK,20130621,63.00,65.00,62.81,64.00,13869
KRUK,20130624,62.85,64.00,62.50,62.50,15091
KRUK,20130625,62.25,63.50,62.25,62.53,13965
KRUK,20130626,62.32,63.98,62.01,63.98,5374
KRUK,20130627,64.90,64.90,61.00,61.25,11914
KRUK,20130628,61.50,62.50,61.50,61.83,13805
KRUK,20130701,63.49,63.49,62.10,63.00,12740
KRUK,20130702,63.70,63.70,62.83,62.83,15045
KRUK,20130703,63.70,63.70,61.90,63.00,2940
KRUK,20130704,63.50,63.50,62.11,62.81,2810
KRUK,20130705,63.20,63.20,62.15,63.00,737
KRUK,20130708,63.00,63.00,62.40,63.00,10689
KRUK,20130709,63.00,63.00,62.60,62.75,2965
KRUK,20130710,62.50,62.50,62.30,62.50,455
KRUK,20130711,62.45,64.50,62.45,64.50,7171
KRUK,20130712,63.60,65.00,63.60,63.71,46232
KRUK,20130715,64.50,64.81,64.00,64.80,86408
KRUK,20130716,66.00,66.00,64.20,65.00,3553
KRUK,20130717,64.50,66.00,64.50,66.00,13777
KRUK,20130718,66.45,66.45,64.55,65.90,389
KRUK,20130719,66.39,66.39,65.45,65.45,343
KRUK,20130722,65.49,66.00,65.20,66.00,314
KRUK,20130723,66.00,66.00,65.20,66.00,33628
KRUK,20130724,65.85,66.00,65.00,65.94,1215
KRUK,20130725,65.00,65.00,64.00,65.00,2009
KRUK,20130726,63.90,65.00,63.90,65.00,2458
KRUK,20130729,65.00,65.93,64.70,65.50,2857
KRUK,20130730,65.31,65.48,64.71,64.91,43116
KRUK,20130731,64.85,65.30,64.85,65.30,6527
KRUK,20130801,64.65,65.38,64.65,65.01,584
KRUK,20130802,65.38,65.50,65.02,65.25,37646
KRUK,20130805,65.75,66.89,65.55,66.50,3710
KRUK,20130806,66.50,66.65,66.15,66.55,4270
KRUK,20130807,66.56,68.00,66.56,67.85,4478
KRUK,20130808,67.91,69.30,67.50,68.80,14856
KRUK,20130809,68.99,68.99,68.20,68.50,1578
KRUK,20130812,68.50,68.50,67.15,68.50,5657
KRUK,20130813,68.50,69.38,68.00,68.90,7513
KRUK,20130814,68.70,69.00,68.49,68.85,4653
KRUK,20130816,68.20,69.00,67.50,68.74,947
KRUK,20130819,68.74,69.00,66.11,66.98,6518
KRUK,20130820,66.50,66.99,64.50,66.00,13252
KRUK,20130821,66.00,66.68,65.99,65.99,17114
KRUK,20130822,66.00,66.30,65.00,66.30,11492
KRUK,20130823,68.45,68.49,66.51,66.51,2354
KRUK,20130826,66.17,66.50,66.00,66.00,1551
KRUK,20130827,67.00,67.00,65.11,65.60,3004
KRUK,20130828,65.59,65.99,65.20,65.23,21887
KRUK,20130829,65.00,66.55,65.00,65.62,1324
KRUK,20130830,65.00,66.00,65.00,66.00,1847
KRUK,20130902,68.03,69.79,68.03,69.56,10047
KRUK,20130903,70.00,71.80,68.50,68.50,10323
KRUK,20130904,68.51,68.79,67.50,67.80,1787
KRUK,20130905,67.10,68.20,61.00,65.99,12669
KRUK,20130906,64.90,67.90,64.90,67.23,12219
KRUK,20130909,68.90,68.90,67.00,67.51,3065
KRUK,20130910,67.60,68.79,67.60,68.79,1583
KRUK,20130911,69.00,70.45,69.00,69.60,34766
KRUK,20130912,69.61,70.99,69.61,70.13,6442
KRUK,20130913,70.60,70.80,70.40,70.51,3310
KRUK,20130916,70.00,71.10,70.00,71.00,21127
KRUK,20130917,71.00,71.80,71.00,71.80,1927
KRUK,20130918,71.79,72.00,71.79,71.96,26697
KRUK,20130919,72.60,73.98,72.50,72.50,6093
KRUK,20130920,73.00,73.80,71.00,71.05,6866
KRUK,20130923,71.05,72.99,71.05,72.17,45281
KRUK,20130924,72.99,72.99,71.00,71.00,5507
KRUK,20130925,71.00,71.99,71.00,71.99,1467
KRUK,20130926,71.99,73.00,71.80,73.00,5489
KRUK,20130927,74.60,75.10,73.92,73.99,3957
KRUK,20130930,73.99,73.99,73.10,73.50,6780
KRUK,20131001,73.55,73.80,73.40,73.60,10408
KRUK,20131002,73.90,73.90,72.80,73.00,1598
KRUK,20131003,72.90,73.50,72.83,73.50,3557
KRUK,20131004,74.00,74.00,72.80,73.35,1765
KRUK,20131007,73.00,73.40,73.00,73.40,1173
KRUK,20131008,73.70,73.80,73.00,73.40,1608
KRUK,20131009,73.20,73.20,72.00,72.22,934
KRUK,20131010,72.22,73.40,72.22,73.20,25721
KRUK,20131011,73.64,73.64,73.10,73.60,2332
KRUK,20131014,73.60,73.65,73.50,73.60,1598
KRUK,20131015,73.40,74.38,73.40,73.90,16616
KRUK,20131016,74.00,74.50,74.00,74.30,7298
KRUK,20131017,74.00,75.80,73.60,75.79,44544
KRUK,20131018,76.20,82.50,75.97,81.00,46857
KRUK,20131021,81.10,81.47,80.23,81.00,16241
KRUK,20131022,80.50,82.50,80.25,82.30,20745
KRUK,20131023,83.00,83.02,81.50,83.00,3239
KRUK,20131024,83.00,85.99,82.00,85.99,10572
KRUK,20131025,86.00,88.30,86.00,87.50,23416
KRUK,20131028,87.70,88.75,87.70,88.50,3686
KRUK,20131029,88.52,89.46,88.20,88.50,9132
KRUK,20131030,88.60,88.60,82.50,84.00,8517
KRUK,20131031,83.12,84.97,81.60,82.31,3653
KRUK,20131104,82.50,87.90,80.50,86.52,58740
KRUK,20131105,86.56,87.48,83.00,84.00,6740
KRUK,20131106,84.25,84.95,83.50,84.95,21742
KRUK,20131107,85.00,85.95,84.60,85.40,12411
KRUK,20131108,85.30,85.94,84.80,85.50,1972
KRUK,20131112,86.00,86.00,84.20,84.20,901
KRUK,20131113,85.00,86.20,83.90,84.00,4598
KRUK,20131114,86.00,87.15,86.00,86.00,3217
KRUK,20131115,86.00,88.48,86.00,88.40,15631
KRUK,20131118,88.40,90.00,88.40,89.55,36368
KRUK,20131119,92.00,92.00,89.75,89.75,10384
KRUK,20131120,89.75,91.84,89.75,91.60,6307
KRUK,20131121,91.60,94.01,90.81,91.20,27650
KRUK,20131122,91.20,92.00,89.50,90.50,10740
KRUK,20131125,91.00,91.00,89.01,89.50,22441
KRUK,20131126,89.00,89.60,88.66,89.60,1352
KRUK,20131127,89.60,89.60,89.00,89.50,1737
KRUK,20131128,89.50,89.50,84.10,87.50,8061
KRUK,20131129,85.41,88.20,84.25,88.19,1310
KRUK,20131202,87.76,90.98,87.76,89.75,5774
KRUK,20131203,90.00,90.00,85.00,88.95,2985
KRUK,20131204,88.88,88.88,86.75,88.00,1746
KRUK,20131205,87.90,89.90,86.75,87.00,1413
KRUK,20131206,87.00,88.78,87.00,88.40,1515
KRUK,20131209,90.00,90.00,87.25,88.00,2116
KRUK,20131210,87.21,88.66,85.22,86.00,4807
KRUK,20131211,86.49,86.49,82.00,82.00,29524
KRUK,20131212,81.12,82.00,80.20,80.23,4892
KRUK,20131213,80.00,81.00,78.20,79.90,30634
KRUK,20131216,79.90,79.90,78.50,79.30,28771
KRUK,20131217,79.99,83.26,78.30,78.60,21589
KRUK,20131218,78.80,81.20,78.50,80.56,5029
KRUK,20131219,83.49,85.00,81.00,81.00,21591
KRUK,20131220,83.00,83.99,80.20,80.20,16681
KRUK,20131223,83.79,83.79,80.20,80.20,11363
KRUK,20131227,80.20,83.35,80.20,80.40,6540
KRUK,20131230,81.00,82.80,78.45,82.76,90717
KRUK,20140102,82.05,83.98,80.21,82.70,4726
KRUK,20140103,82.50,82.82,82.40,82.82,1066
KRUK,20140107,82.82,82.82,82.02,82.70,2820
KRUK,20140108,83.95,83.95,79.60,79.60,88079
KRUK,20140109,79.60,81.90,75.60,78.00,177126
KRUK,20140110,77.95,77.95,77.04,77.50,2390
KRUK,20140113,77.10,80.00,77.06,78.57,5788
KRUK,20140114,79.95,80.50,79.14,80.09,84857
KRUK,20140115,80.20,81.45,80.20,81.45,31674
KRUK,20140116,82.55,83.00,81.00,83.00,56198
KRUK,20140117,83.00,83.53,82.62,82.72,1374
KRUK,20140120,82.50,82.72,81.57,82.72,46037
KRUK,20140121,81.41,84.50,81.41,84.05,5360
KRUK,20140122,84.01,85.31,84.01,84.99,22306
KRUK,20140123,84.99,85.25,84.50,84.99,3126
KRUK,20140124,84.95,84.99,84.50,84.80,3392
KRUK,20140127,84.79,84.80,84.05,84.49,49524
KRUK,20140128,84.40,84.89,83.11,84.16,5189
KRUK,20140129,84.16,84.69,83.70,83.74,3423
KRUK,20140130,84.00,84.04,80.80,81.65,5561
KRUK,20140131,81.66,82.40,81.15,82.40,9604
KRUK,20140203,81.51,82.40,81.20,82.40,2028
KRUK,20140204,82.40,82.40,80.80,80.99,7527
KRUK,20140205,81.00,83.83,80.41,81.50,42514
KRUK,20140206,83.00,83.69,82.50,82.68,2448
KRUK,20140207,82.68,83.00,81.26,81.27,9237
KRUK,20140210,81.25,83.00,80.95,81.31,19859
KRUK,20140211,81.30,82.00,80.80,81.00,46076
KRUK,20140212,82.00,82.65,81.81,82.54,7031
KRUK,20140213,82.70,83.50,82.70,83.00,47341
KRUK,20140214,83.69,84.68,83.51,84.68,3290
KRUK,20140217,84.70,88.80,84.70,87.94,4577
KRUK,20140218,87.00,87.50,86.51,87.23,2066
KRUK,20140219,86.99,87.00,85.10,86.90,16377
KRUK,20140220,85.30,85.94,84.28,85.80,2685
KRUK,20140221,86.90,86.90,83.00,86.62,2165
KRUK,20140224,86.70,87.70,86.50,87.30,4189
KRUK,20140225,87.60,89.00,87.60,88.50,5872
KRUK,20140226,88.70,88.88,84.40,85.20,1717
KRUK,20140227,84.41,86.09,84.41,84.70,6786
KRUK,20140228,84.61,86.88,82.15,82.82,4871
KRUK,20140303,81.10,82.75,81.10,82.00,22959
KRUK,20140304,81.10,84.90,81.10,82.23,6454
KRUK,20140305,82.50,83.00,82.00,82.05,2340
KRUK,20140306,82.50,82.50,81.01,82.04,1387
KRUK,20140307,82.05,82.05,81.20,81.40,10513
KRUK,20140310,81.40,81.98,79.77,81.00,24550
KRUK,20140311,80.49,80.60,80.16,80.21,370
KRUK,20140312,80.00,80.00,77.60,78.50,6123
KRUK,20140313,78.50,80.30,78.50,79.00,5918
KRUK,20140314,77.11,78.85,77.11,77.20,14718
KRUK,20140317,75.80,80.30,75.80,78.40,2689
KRUK,20140318,80.30,80.30,77.70,77.77,7745
KRUK,20140319,77.70,80.60,77.70,80.39,7584
KRUK,20140320,80.37,80.80,77.70,77.70,5088
KRUK,20140321,79.80,79.80,78.02,78.10,7356
KRUK,20140324,79.85,79.85,77.70,77.70,7349
KRUK,20140325,77.50,80.30,77.50,79.36,4299
KRUK,20140326,80.00,80.49,79.61,80.49,1423
KRUK,20140327,80.00,81.00,80.00,80.90,5142
KRUK,20140328,81.00,82.30,80.60,82.00,2422
KRUK,20140331,82.00,83.01,82.00,82.80,15718
KRUK,20140401,82.80,86.50,82.11,86.00,33902
KRUK,20140402,86.10,88.40,86.10,87.07,34363
KRUK,20140403,86.00,87.00,86.00,86.26,4405
KRUK,20140404,86.02,87.00,85.13,86.75,25844
KRUK,20140407,86.50,86.50,85.51,85.51,1084
KRUK,20140408,85.11,86.00,85.11,85.90,18512
KRUK,20140409,85.85,87.00,85.41,86.00,23322
KRUK,20140410,86.00,86.00,85.23,85.50,1197
KRUK,20140411,85.19,85.95,84.76,84.80,2749
KRUK,20140414,84.51,84.51,82.47,82.50,1309
KRUK,20140415,82.30,82.51,81.30,82.00,1763
KRUK,20140416,81.50,81.51,80.00,80.23,3421
KRUK,20140417,80.24,81.20,80.24,81.15,3802
KRUK,20140422,81.30,83.50,81.30,83.50,1687
KRUK,20140423,83.50,83.70,83.00,83.60,2536
KRUK,20140424,83.80,84.34,83.68,83.80,1722
KRUK,20140425,83.00,83.00,81.35,82.50,12042
KRUK,20140428,82.10,83.50,82.10,82.50,14788
KRUK,20140429,82.70,83.30,82.50,83.00,6787
KRUK,20140430,82.36,83.30,82.36,83.30,2482
KRUK,20140502,83.90,84.35,83.90,84.12,921
KRUK,20140505,84.00,84.25,84.00,84.00,4216
KRUK,20140506,84.00,86.00,84.00,85.00,5103
KRUK,20140507,83.32,84.94,83.32,84.85,20535
KRUK,20140508,84.06,84.87,83.45,84.75,10828
KRUK,20140509,84.80,84.80,81.41,83.30,16234
KRUK,20140512,83.56,83.70,80.10,82.00,7026
KRUK,20140513,81.00,81.00,80.51,80.90,10693
KRUK,20140514,83.55,88.42,83.55,88.42,16135
KRUK,20140515,87.02,91.00,87.00,88.42,96240
KRUK,20140516,90.99,90.99,88.50,88.93,3354
KRUK,20140519,89.00,89.00,88.04,88.20,8071
KRUK,20140520,88.20,88.99,88.05,88.99,10859
KRUK,20140521,88.85,91.15,88.85,90.00,48114
KRUK,20140522,90.90,90.90,89.16,90.00,36096
KRUK,20140523,90.90,91.00,90.49,90.94,516
KRUK,20140526,90.99,90.99,89.15,90.05,1498
KRUK,20140527,90.00,91.30,90.00,91.29,5409
KRUK,20140528,91.50,92.90,90.30,92.60,14610
KRUK,20140529,93.60,98.80,93.60,95.80,31065
KRUK,20140530,96.80,97.50,96.02,96.51,3028
KRUK,20140602,96.51,97.50,96.51,97.20,10087
KRUK,20140603,97.20,97.20,93.21,95.50,20970
KRUK,20140604,95.90,95.90,94.10,94.98,4760
KRUK,20140605,95.90,96.00,95.20,95.49,2452
KRUK,20140606,96.00,96.92,95.49,95.49,5226
KRUK,20140609,95.60,96.20,95.60,96.10,13120
KRUK,20140610,96.90,96.90,93.04,94.81,5435
KRUK,20140611,95.00,95.00,93.55,94.50,3169
KRUK,20140612,95.08,95.65,94.99,95.30,2189
KRUK,20140613,95.51,95.99,93.60,95.98,3289
KRUK,20140616,95.98,95.98,95.01,95.40,2414
KRUK,20140617,94.13,95.75,94.13,95.60,3411
KRUK,20140618,96.10,96.10,95.45,95.45,3426
KRUK,20140620,95.94,95.95,95.50,95.90,10516
KRUK,20140623,95.50,95.80,95.00,95.80,5488
KRUK,20140624,95.00,95.80,94.50,95.41,7927
KRUK,20140625,95.40,95.40,94.00,94.00,17646
KRUK,20140626,94.00,94.00,91.50,91.70,3042
KRUK,20140627,92.00,92.70,89.11,89.11,7611
KRUK,20140630,89.51,90.48,89.11,89.25,3166
KRUK,20140701,89.25,91.00,89.25,90.90,13718
KRUK,20140702,91.30,91.30,91.00,91.13,47366
KRUK,20140703,91.00,91.12,90.20,90.99,634
KRUK,20140704,90.20,91.11,90.20,91.11,454
KRUK,20140707,91.11,92.44,90.50,90.50,4029
KRUK,20140708,91.00,92.37,90.40,92.37,7570
KRUK,20140709,91.12,92.85,91.12,92.85,8624
KRUK,20140710,92.85,92.85,90.95,91.87,2916
KRUK,20140711,91.16,92.32,91.16,92.32,2483
KRUK,20140714,92.00,93.99,91.99,92.85,3708
KRUK,20140715,92.91,93.50,92.85,92.90,970
KRUK,20140716,92.90,92.90,91.45,91.70,3212
KRUK,20140717,91.70,92.00,91.30,92.00,1806
KRUK,20140718,91.10,91.35,90.25,90.40,9727
KRUK,20140721,90.20,90.20,89.80,89.80,1475
KRUK,20140722,89.71,91.00,88.00,90.99,9929
KRUK,20140723,90.80,90.80,89.16,89.16,5003
KRUK,20140724,89.17,89.80,89.17,89.80,2935
KRUK,20140725,89.16,92.00,89.16,89.80,3635
KRUK,20140728,89.80,91.52,89.79,91.50,1599
KRUK,20140729,91.40,91.41,90.15,90.30,2838
KRUK,20140730,91.38,91.50,89.50,89.78,28659
KRUK,20140731,89.16,89.78,85.35,86.64,9658
KRUK,20140801,85.50,87.23,85.50,86.65,9603
KRUK,20140804,87.10,91.39,87.10,90.90,4986
KRUK,20140805,90.90,91.81,90.10,91.65,3241
KRUK,20140806,91.50,91.50,91.06,91.50,18484
KRUK,20140807,91.50,91.50,88.00,89.90,1982
KRUK,20140808,87.11,88.90,86.23,87.50,1868
KRUK,20140811,87.50,89.87,87.50,87.80,6364
KRUK,20140812,87.70,88.06,87.70,88.00,1242
KRUK,20140813,88.50,88.52,87.65,87.65,3147
KRUK,20140814,90.00,90.48,87.32,87.32,5892
KRUK,20140818,87.46,88.99,87.46,88.52,35846
KRUK,20140819,88.71,89.60,88.51,89.01,7136
KRUK,20140820,90.09,91.48,90.09,91.48,1302
KRUK,20140821,91.40,94.99,91.39,94.80,5679
KRUK,20140822,94.80,94.80,94.00,94.00,2203
KRUK,20140825,94.20,94.95,94.15,94.61,23141
KRUK,20140826,95.00,98.80,95.00,98.60,14495
KRUK,20140827,98.90,101.00,98.81,100.80,34563
KRUK,20140828,101.50,101.50,94.60,96.40,10984
KRUK,20140829,96.40,99.60,95.50,96.00,9614
KRUK,20140901,99.80,101.00,99.06,99.80,27186
KRUK,20140902,100.10,100.65,97.95,98.00,29229
KRUK,20140903,97.90,101.50,97.90,100.50,63349
KRUK,20140904,101.40,105.00,98.50,105.00,68105
KRUK,20140905,105.00,107.00,104.10,107.00,57118
KRUK,20140908,107.90,107.90,104.75,104.85,12382
KRUK,20140909,104.50,104.50,101.50,104.40,86055
KRUK,20140910,103.90,106.90,103.20,106.00,38855
KRUK,20140911,106.90,108.65,106.50,108.50,51152
KRUK,20140912,108.50,108.85,106.50,107.00,7180
KRUK,20140915,107.50,107.60,106.00,106.85,83118
KRUK,20140916,106.80,106.85,105.00,105.85,97949
KRUK,20140917,105.85,105.90,105.55,105.85,50928
KRUK,20140918,105.80,105.85,105.30,105.50,35951
KRUK,20140919,105.30,108.50,105.10,106.50,62665
KRUK,20140922,105.75,107.65,105.50,107.30,47851
KRUK,20140923,107.30,107.50,107.15,107.35,38308
KRUK,20140924,107.15,107.70,107.00,107.55,18558
KRUK,20140925,108.00,109.95,107.50,109.55,41024
KRUK,20140926,109.35,110.35,108.55,110.00,39053
KRUK,20140929,110.00,110.30,108.00,110.00,30792
KRUK,20140930,110.00,110.00,107.75,108.80,3799
KRUK,20141001,107.75,108.60,105.70,106.90,1493
KRUK,20141002,106.85,106.85,103.80,104.20,21860
KRUK,20141003,104.20,109.00,104.20,109.00,8943
KRUK,20141006,109.10,109.30,108.00,109.30,4641
KRUK,20141007,109.00,109.00,107.00,108.95,6918
KRUK,20141008,108.80,108.80,107.05,107.45,1136
KRUK,20141009,108.30,108.35,107.65,107.75,625
KRUK,20141010,107.30,107.30,105.00,106.50,80311
KRUK,20141013,106.45,106.50,105.15,106.50,4807
KRUK,20141014,105.05,107.50,104.00,106.50,5432
KRUK,20141015,107.45,107.45,105.00,105.00,9268
KRUK,20141016,104.55,105.80,104.20,105.00,10994
KRUK,20141017,104.15,106.00,102.35,105.50,4221
KRUK,20141020,105.40,105.90,104.30,105.90,1174
KRUK,20141021,105.60,108.00,104.80,108.00,19544
KRUK,20141022,108.00,108.00,107.50,108.00,2218
KRUK,20141023,108.00,108.00,106.75,107.60,892
KRUK,20141024,107.85,108.00,106.80,107.00,8478
KRUK,20141027,107.00,108.00,106.20,106.20,3195
KRUK,20141028,106.25,106.95,105.75,106.00,1396
KRUK,20141029,105.95,106.75,105.50,105.50,20981
KRUK,20141030,105.40,105.95,105.10,105.50,1396
KRUK,20141031,105.50,107.75,105.50,107.75,13641
KRUK,20141103,107.90,109.65,106.00,106.35,6279
KRUK,20141104,106.00,112.50,105.90,112.00,22392
KRUK,20141105,112.35,113.00,110.35,111.10,2605
KRUK,20141106,110.50,112.30,110.50,111.50,7701
KRUK,20141107,111.60,112.20,111.00,111.40,4795
KRUK,20141110,111.35,112.00,111.15,111.60,3358
KRUK,20141112,108.00,114.80,105.50,113.90,94207
KRUK,20141113,113.95,117.40,112.65,116.30,64950
KRUK,20141114,116.95,118.00,116.95,117.45,11665
KRUK,20141117,117.45,117.70,116.30,116.30,16975
KRUK,20141118,116.30,117.70,116.30,117.50,16036
KRUK,20141119,116.65,117.65,116.65,116.90,4218
KRUK,20141120,116.85,117.00,116.00,116.30,6806
KRUK,20141121,116.50,117.05,116.30,116.90,3323
KRUK,20141124,116.50,117.00,116.30,116.30,16558
KRUK,20141125,116.30,117.40,116.30,117.35,11933
KRUK,20141126,117.50,119.00,116.50,116.50,43282
KRUK,20141127,116.05,117.75,116.05,116.50,16717
KRUK,20141128,116.35,116.90,116.30,116.45,53875
KRUK,20141201,116.40,117.00,116.30,116.30,1362
KRUK,20141202,116.65,116.65,116.30,116.50,1082
KRUK,20141203,117.70,119.00,117.70,119.00,16491
KRUK,20141204,119.00,119.20,117.00,117.00,6203
KRUK,20141205,117.10,118.00,116.30,117.00,6896
KRUK,20141208,117.00,117.95,116.30,116.95,14456
KRUK,20141209,116.60,119.85,116.40,116.40,16055
KRUK,20141210,116.45,118.40,116.30,118.40,6804
KRUK,20141211,118.35,118.35,117.55,117.95,8220
KRUK,20141212,117.90,118.05,116.30,116.45,43798
KRUK,20141215,116.50,117.85,116.35,116.50,41323
KRUK,20141216,116.30,116.55,109.70,112.00,90165
KRUK,20141217,110.30,112.35,110.30,111.55,44849
KRUK,20141218,112.30,115.00,111.80,112.00,116581
KRUK,20141219,110.00,112.90,110.00,111.50,12391
KRUK,20141222,107.00,110.85,104.50,110.00,36601
KRUK,20141223,110.00,111.45,109.20,110.10,25651
KRUK,20141229,106.00,110.95,105.50,110.90,22857
KRUK,20141230,107.00,110.90,102.55,110.00,129297
KRUK,20150102,109.90,109.90,108.40,109.40,1896
KRUK,20150105,109.00,109.00,108.00,108.95,10660
KRUK,20150107,109.05,111.95,109.05,109.50,14053
KRUK,20150108,111.75,114.50,110.40,112.90,10742
KRUK,20150109,115.00,116.95,113.50,116.95,44057
KRUK,20150112,117.00,117.85,113.10,117.00,9946
KRUK,20150113,117.00,117.00,115.00,116.70,14415
KRUK,20150114,117.00,117.00,116.00,116.50,7055
KRUK,20150115,116.50,119.50,116.05,119.00,22148
KRUK,20150116,118.90,118.90,115.05,116.00,7799
KRUK,20150119,117.90,117.90,114.50,114.55,17971
KRUK,20150120,114.55,117.50,114.55,115.00,7502
KRUK,20150121,116.00,116.60,114.50,115.00,8413
KRUK,20150122,115.95,116.00,112.90,112.90,6743
KRUK,20150123,115.50,115.50,112.90,113.00,13237
KRUK,20150126,113.05,114.60,111.50,113.00,5012
KRUK,20150127,111.65,116.00,111.65,116.00,43406
KRUK,20150128,116.50,116.50,115.20,116.40,2647
KRUK,20150129,116.40,116.50,115.40,115.40,4307
KRUK,20150130,116.35,118.00,114.95,114.95,6361
KRUK,20150202,116.90,116.90,115.90,115.95,3694
KRUK,20150203,116.95,116.95,115.55,115.60,4964
KRUK,20150204,116.05,117.45,115.00,116.50,1639
KRUK,20150205,117.00,117.20,115.50,116.00,8877
KRUK,20150206,116.10,118.00,115.50,118.00,36194
KRUK,20150209,118.00,118.90,118.00,118.80,13316
KRUK,20150210,118.10,119.65,118.00,119.50,10653
KRUK,20150211,119.55,122.00,119.10,122.00,13659
KRUK,20150212,122.85,123.45,121.75,122.00,17281
KRUK,20150213,122.95,122.95,121.55,122.75,58819
KRUK,20150216,122.90,122.90,120.75,122.50,14390
KRUK,20150217,122.50,122.80,121.50,122.45,9572
KRUK,20150218,122.10,123.30,122.00,122.00,12361
KRUK,20150219,122.30,123.20,121.75,121.90,20836
KRUK,20150220,122.30,123.50,121.50,122.00,19566
KRUK,20150223,127.90,127.90,123.50,125.50,43919
KRUK,20150224,126.70,127.70,126.70,127.55,35113
KRUK,20150225,127.90,129.80,126.75,129.05,26232
KRUK,20150226,129.60,129.80,127.00,129.80,32174
KRUK,20150227,129.90,130.30,128.55,129.00,9717
KRUK,20150302,129.00,131.40,128.70,131.00,5436
KRUK,20150303,131.40,132.85,130.60,132.40,7293
KRUK,20150304,133.00,133.50,131.00,133.00,15787
KRUK,20150305,133.70,133.70,131.50,131.70,19351
KRUK,20150306,131.90,132.80,130.55,132.70,4591
KRUK,20150309,133.45,133.75,132.70,133.75,17000
KRUK,20150310,133.45,133.45,126.30,127.75,14697
KRUK,20150311,128.10,134.00,128.10,131.35,14181
KRUK,20150312,132.10,136.00,131.50,135.05,19495
KRUK,20150313,137.15,138.90,134.70,135.00,7878
KRUK,20150316,133.85,138.00,133.30,134.05,9113
KRUK,20150317,135.95,136.55,130.00,132.00,13919
KRUK,20150318,132.00,132.35,129.00,129.00,6483
KRUK,20150319,127.00,133.00,126.75,132.00,29658
KRUK,20150320,133.00,135.00,133.00,135.00,24166
KRUK,20150323,135.00,135.00,132.15,134.10,5254
KRUK,20150324,134.30,134.95,133.30,133.50,52382
KRUK,20150325,134.35,136.30,134.15,134.80,27712
KRUK,20150326,134.75,135.65,132.30,133.00,8840
KRUK,20150327,133.00,135.45,133.00,134.50,92440
KRUK,20150330,135.60,136.00,134.05,135.50,10150
KRUK,20150331,136.00,136.00,135.00,135.90,14766
KRUK,20150401,135.70,140.45,135.05,139.80,50830
KRUK,20150402,140.00,141.65,139.00,139.60,5937
KRUK,20150407,139.60,141.90,138.60,139.10,34330
KRUK,20150408,139.60,140.10,135.35,137.90,16701
KRUK,20150409,137.60,142.45,137.60,142.45,11613
KRUK,20150410,142.80,146.85,142.00,142.60,20754
KRUK,20150413,142.60,144.00,142.60,144.00,26776
KRUK,20150414,145.00,146.00,144.65,145.80,6038
KRUK,20150415,146.50,147.95,142.90,143.05,37219
KRUK,20150416,143.10,147.00,143.10,147.00,25152
KRUK,20150417,147.50,149.00,146.05,148.35,19864
KRUK,20150420,148.00,148.90,147.90,148.90,21704
KRUK,20150421,148.90,152.50,148.90,151.25,21905
KRUK,20150422,152.50,152.50,151.50,151.60,18580
KRUK,20150423,152.00,152.90,151.70,152.20,8067
KRUK,20150424,152.10,157.90,152.10,157.90,14818
KRUK,20150427,159.00,159.60,156.00,156.50,13980
KRUK,20150428,157.00,158.70,154.90,156.00,12932
KRUK,20150429,157.15,157.50,151.00,153.20,13903
KRUK,20150430,153.50,154.50,153.20,153.20,8674
KRUK,20150504,154.25,155.85,154.25,155.00,4431
KRUK,20150505,155.35,156.00,153.80,154.00,5894
KRUK,20150506,154.00,158.00,153.20,158.00,21644
KRUK,20150507,157.50,159.00,157.50,159.00,9788
KRUK,20150508,159.90,159.90,158.20,158.95,9550
KRUK,20150511,161.00,164.90,160.95,164.80,31276
KRUK,20150512,162.20,166.00,162.20,165.30,12919
KRUK,20150513,166.00,166.75,165.45,166.00,12844
KRUK,20150514,166.50,168.75,163.05,165.00,28343
KRUK,20150515,165.10,167.00,162.10,162.25,9050
KRUK,20150518,162.10,166.75,162.10,165.50,6339
KRUK,20150519,165.95,166.75,160.05,165.50,17408
KRUK,20150520,165.00,165.35,164.00,165.00,10040
KRUK,20150521,165.00,165.90,164.00,164.90,12052
KRUK,20150522,165.00,166.00,164.90,165.95,21021
KRUK,20150525,164.20,165.80,160.10,162.45,5315
KRUK,20150526,162.00,164.30,162.00,163.60,15203
KRUK,20150527,163.50,164.90,162.00,163.30,17824
KRUK,20150528,163.40,163.90,162.15,163.00,2821
KRUK,20150529,163.00,163.20,160.95,161.30,33144
KRUK,20150601,161.00,162.50,160.60,162.50,12033
KRUK,20150602,162.60,162.60,160.55,161.00,9501
KRUK,20150603,161.00,162.00,160.55,161.00,15802
KRUK,20150605,161.00,161.00,157.30,158.50,9169
KRUK,20150608,157.50,157.50,153.30,156.05,14403
KRUK,20150609,155.80,156.00,147.15,151.50,34003
KRUK,20150610,150.00,154.50,150.00,154.50,19817
KRUK,20150611,155.05,156.35,151.00,153.30,9675
KRUK,20150612,153.00,153.00,151.00,152.00,5010
KRUK,20150615,150.55,152.00,147.40,151.75,9090
KRUK,20150616,151.40,152.80,151.10,152.05,3958
KRUK,20150617,153.50,153.50,150.60,150.60,8312
KRUK,20150618,149.65,151.90,149.65,151.00,6989
KRUK,20150619,151.80,153.00,150.60,150.60,10867
KRUK,20150622,150.10,155.00,150.10,154.80,10734
KRUK,20150623,156.45,158.70,156.05,158.40,19770
KRUK,20150624,158.50,160.50,158.00,159.50,4554
KRUK,20150625,159.30,159.90,155.05,155.10,7618
KRUK,20150626,156.00,158.85,156.00,157.15,10107
KRUK,20150629,151.70,155.50,141.10,155.50,9741
KRUK,20150630,153.00,155.00,151.10,151.10,10289
KRUK,20150701,152.50,154.90,151.25,152.60,6946
KRUK,20150702,152.60,156.00,152.60,155.00,12172
KRUK,20150703,155.20,155.20,153.10,154.50,2076
KRUK,20150706,151.05,154.60,151.05,153.50,9624
KRUK,20150707,154.50,155.10,153.50,153.60,11493
KRUK,20150708,153.00,153.90,151.20,153.50,17498
KRUK,20150709,153.00,156.60,152.20,156.60,3747
KRUK,20150710,158.30,160.60,158.20,160.00,27686
KRUK,20150713,160.00,167.60,159.05,166.25,46851
KRUK,20150714,167.45,167.45,164.05,165.00,9517
KRUK,20150715,166.00,167.50,164.85,166.95,9314
KRUK,20150716,167.90,168.00,167.00,168.00,45317
KRUK,20150717,168.20,169.90,167.90,169.60,35528
KRUK,20150720,170.00,171.40,166.95,169.40,12291
KRUK,20150721,170.00,170.00,164.20,169.80,16656
KRUK,20150722,167.35,169.70,167.00,167.00,3516
KRUK,20150723,167.00,168.35,167.00,168.00,5641
KRUK,20150724,169.45,169.95,168.00,169.95,24353
KRUK,20150727,169.50,169.90,167.45,169.20,3531
KRUK,20150728,169.20,169.85,168.35,169.20,1014
KRUK,20150729,169.00,172.00,168.35,171.75,5027
KRUK,20150730,172.00,176.25,172.00,174.05,7554
KRUK,20150731,175.00,175.75,172.10,173.40,17819
KRUK,20150803,175.00,175.00,170.00,174.10,32244
KRUK,20150804,174.05,177.95,174.05,176.50,18038
KRUK,20150805,177.05,180.00,175.30,177.45,32724
KRUK,20150806,177.50,178.45,175.15,177.00,9396
KRUK,20150807,176.35,179.80,176.15,177.50,13908
KRUK,20150810,177.55,180.90,177.55,178.00,6772
KRUK,20150811,180.00,181.65,177.95,180.55,13425
KRUK,20150812,181.40,183.95,181.35,182.35,17488
KRUK,20150813,184.00,187.50,181.05,182.50,24021
KRUK,20150814,184.40,185.30,182.00,182.40,7865
KRUK,20150817,182.40,183.50,181.50,181.50,19548
KRUK,20150818,181.50,182.30,181.10,182.00,16352
KRUK,20150819,182.25,183.10,181.60,182.50,7056
KRUK,20150820,182.00,182.00,176.50,180.85,20092
KRUK,20150821,180.00,180.95,177.00,180.85,19839
KRUK,20150824,175.00,176.00,171.50,174.90,43551
KRUK,20150825,170.00,176.50,168.50,174.50,34398
KRUK,20150826,174.90,174.90,160.50,168.60,47285
KRUK,20150827,172.20,177.20,172.00,175.20,12079
KRUK,20150828,178.00,178.00,170.00,175.95,12174
KRUK,20150831,166.10,175.00,164.10,174.65,8692
KRUK,20150901,172.65,173.60,170.70,172.05,27280
KRUK,20150902,172.00,173.50,168.20,170.00,13125
KRUK,20150903,170.00,170.00,166.35,169.50,21162
KRUK,20150904,170.00,173.00,169.00,169.70,40413
KRUK,20150907,169.75,170.90,167.80,170.80,15291
KRUK,20150908,170.95,172.80,167.80,171.50,19736
KRUK,20150909,171.25,172.85,170.60,172.85,20198
KRUK,20150910,172.35,173.00,170.05,173.00,13859
KRUK,20150911,172.75,172.90,169.00,172.40,18771
KRUK,20150914,172.00,172.40,169.00,171.55,9332
KRUK,20150915,171.60,172.00,169.00,171.80,4746
KRUK,20150916,170.65,171.75,170.05,171.20,2648
KRUK,20150917,171.50,171.70,170.60,171.00,8440
KRUK,20150918,169.25,172.10,169.20,171.40,26813
KRUK,20150921,171.40,171.70,170.60,171.70,11810
KRUK,20150922,171.70,171.80,171.40,171.60,2493
KRUK,20150923,171.60,172.00,171.40,171.60,74214
KRUK,20150924,172.00,172.00,171.20,171.85,2594
KRUK,20150925,172.00,175.00,172.00,174.00,3414
KRUK,20150928,175.00,175.00,171.60,172.45,2863
KRUK,20150929,171.50,171.50,170.10,171.00,17452
KRUK,20150930,170.00,174.10,170.00,174.10,10737
KRUK,20151001,174.20,174.20,171.50,172.00,17165
KRUK,20151002,172.95,172.95,170.40,171.00,8624
KRUK,20151005,171.75,173.95,171.35,173.95,3856
KRUK,20151006,173.30,174.25,173.00,174.00,7381
KRUK,20151007,174.15,180.00,173.50,180.00,48864
KRUK,20151008,176.05,182.00,176.05,180.40,5139
KRUK,20151009,180.65,181.90,180.10,181.20,6537
KRUK,20151012,180.00,181.15,179.10,180.40,16150
KRUK,20151013,180.00,180.40,180.00,180.20,2687
KRUK,20151014,179.05,184.05,179.05,181.60,5699
KRUK,20151015,183.00,185.00,182.50,183.00,46800
KRUK,20151016,183.00,183.00,180.00,181.65,8674
KRUK,20151019,179.50,182.00,179.50,182.00,3200
KRUK,20151020,181.05,185.00,181.05,185.00,4372
KRUK,20151021,185.75,186.40,183.95,184.80,4884
KRUK,20151022,185.00,185.45,182.70,183.70,8006
KRUK,20151023,184.00,185.00,183.50,184.50,236214
KRUK,20151026,185.40,185.40,182.75,183.05,5590
KRUK,20151027,184.70,185.00,183.50,183.50,6039
KRUK,20151028,182.60,184.85,181.60,182.75,4853
KRUK,20151029,182.60,183.00,180.30,181.80,8766
KRUK,20151030,182.00,184.60,181.10,183.95,9238
KRUK,20151102,184.40,185.50,184.00,184.35,60992
KRUK,20151103,184.40,185.10,184.05,184.25,19243
KRUK,20151104,184.25,191.60,184.25,191.00,21987
KRUK,20151105,190.00,190.00,187.60,188.00,7046
KRUK,20151106,188.00,188.00,183.75,183.75,4187
KRUK,20151109,183.50,185.00,181.95,183.00,5419
KRUK,20151110,183.00,183.00,179.00,179.00,11052
KRUK,20151112,180.50,181.60,175.00,180.50,30306
KRUK,20151113,184.00,188.80,184.00,187.75,23545
KRUK,20151116,187.75,190.00,187.60,189.95,51575
KRUK,20151117,190.00,190.00,186.00,186.00,19449
KRUK,20151118,187.50,189.75,186.00,188.00,4917
KRUK,20151119,188.95,188.95,185.50,185.95,40766
KRUK,20151120,186.95,186.95,183.05,184.00,9477
KRUK,20151123,185.55,185.55,181.00,181.00,10034
KRUK,20151124,182.00,184.00,181.90,184.00,12841
KRUK,20151125,184.70,189.80,184.50,189.30,63100
KRUK,20151126,189.60,193.10,187.70,191.25,26862
KRUK,20151127,191.25,191.25,184.65,188.00,25650
KRUK,20151130,186.00,188.85,186.00,186.95,143195
KRUK,20151201,188.60,188.60,184.30,187.05,14742
KRUK,20151202,186.90,191.00,183.05,184.85,40109
KRUK,20151203,184.00,184.70,180.15,181.95,15913
KRUK,20151204,182.00,183.50,179.00,181.70,34055
KRUK,20151207,181.75,185.10,181.50,184.00,20996
KRUK,20151208,184.00,187.75,183.00,185.00,23754
KRUK,20151209,185.00,186.10,181.50,185.00,232770
KRUK,20151210,185.00,185.00,179.05,179.05,13922
KRUK,20151211,179.05,181.40,170.50,173.40,48141
KRUK,20151214,172.85,172.85,168.50,170.60,106068
KRUK,20151215,170.50,180.00,170.35,177.50,58895
KRUK,20151216,178.00,178.75,175.00,175.00,16357
KRUK,20151217,175.00,179.05,173.75,179.05,26278
KRUK,20151218,179.80,179.80,174.20,176.90,9531
KRUK,20151221,176.90,178.00,175.80,177.50,5946
KRUK,20151222,177.00,177.60,174.00,174.00,4453
KRUK,20151223,174.00,174.20,172.15,172.50,12383
KRUK,20151228,172.50,174.15,172.50,173.75,7131
KRUK,20151229,175.00,177.00,175.00,176.40,5913
KRUK,20151230,176.00,176.15,172.90,174.00,32930
KRUK,20160104,172.00,174.00,170.00,171.00,70873
KRUK,20160105,170.50,174.05,170.50,171.50,24579
KRUK,20160107,170.00,171.00,163.05,167.50,34615
KRUK,20160108,167.00,167.90,161.00,161.30,65793
KRUK,20160111,160.90,160.90,152.00,154.00,181235
KRUK,20160112,152.10,156.90,152.10,156.60,45943
KRUK,20160113,156.90,160.50,156.90,160.20,38978
KRUK,20160114,160.00,160.00,152.60,153.55,39454
KRUK,20160115,153.00,154.95,151.50,152.30,31209
KRUK,20160118,150.00,152.00,146.60,150.00,22402
KRUK,20160119,152.35,153.50,150.95,150.95,47604
KRUK,20160120,151.60,151.65,149.20,149.40,39607
KRUK,20160121,149.40,151.10,148.00,151.10,85734
KRUK,20160122,152.00,154.45,151.00,154.35,42847
KRUK,20160125,154.95,161.40,154.95,160.50,13248
KRUK,20160126,158.30,163.45,156.00,161.90,14875
KRUK,20160127,161.00,165.00,161.00,165.00,28159
KRUK,20160128,165.00,166.95,161.15,161.15,30194
KRUK,20160129,162.15,163.95,162.15,163.55,15330
KRUK,20160201,163.55,169.00,163.55,168.70,22000
KRUK,20160202,169.00,169.90,167.05,169.40,10843
KRUK,20160203,168.35,168.95,164.00,165.35,15066
KRUK,20160204,167.10,170.00,165.75,169.60,22887
KRUK,20160205,170.00,172.00,167.20,168.00,35546
KRUK,20160208,168.00,169.00,164.65,165.00,22077
KRUK,20160209,164.90,171.50,163.25,166.70,17605
KRUK,20160210,166.50,171.00,166.35,166.90,12051
KRUK,20160211,169.00,169.95,164.90,167.65,12454
KRUK,20160212,167.65,168.90,167.00,167.00,10006
KRUK,20160215,167.00,170.40,162.55,169.00,28263
KRUK,20160216,169.50,169.80,165.50,166.50,24008
KRUK,20160217,167.15,169.30,167.15,169.00,19755
KRUK,20160218,169.45,172.00,167.35,170.10,14071
KRUK,20160219,171.25,171.80,168.50,171.40,31541
KRUK,20160222,171.80,179.65,171.55,178.75,32208
KRUK,20160223,178.75,187.45,177.55,186.50,103123
KRUK,20160224,183.30,184.85,182.15,183.40,32962
KRUK,20160225,181.90,181.90,176.20,177.35,37985
KRUK,20160226,179.45,179.45,175.75,176.50,26283
KRUK,20160229,177.35,182.95,176.25,182.40,20220
KRUK,20160301,184.90,184.90,180.45,181.00,7584
KRUK,20160302,181.45,182.10,180.05,180.90,5712
KRUK,20160303,182.00,187.85,182.00,187.50,56060
KRUK,20160304,187.50,190.00,185.40,188.80,21539
KRUK,20160307,188.95,190.00,186.00,189.00,27471
KRUK,20160308,189.00,189.50,187.10,189.50,27667
KRUK,20160309,189.50,189.50,188.05,189.00,34100
KRUK,20160310,188.95,190.00,187.85,189.15,34665
KRUK,20160311,189.00,189.85,186.40,187.50,25916
KRUK,20160314,187.30,192.50,186.55,191.30,32096
KRUK,20160315,190.00,194.90,190.00,194.90,30770
KRUK,20160316,193.00,193.00,188.40,190.25,48262
KRUK,20160317,190.25,190.85,188.00,189.00,36358
KRUK,20160318,188.00,189.00,177.00,183.00,149669
KRUK,20160321,183.00,187.05,183.00,183.90,15418
KRUK,20160322,183.20,184.60,180.90,184.00,40470
KRUK,20160323,184.30,184.85,183.10,183.50,21246
KRUK,20160324,184.35,184.35,181.80,183.50,34307
KRUK,20160329,183.30,184.20,182.70,184.20,142679
KRUK,20160330,184.20,184.90,181.20,183.00,11255
KRUK,20160331,181.90,183.00,180.00,180.00,34519
KRUK,20160401,179.90,180.00,177.60,178.00,74093
KRUK,20160404,178.00,182.95,178.00,181.00,8427
KRUK,20160405,180.15,180.75,178.00,178.00,35852
KRUK,20160406,178.50,178.95,172.75,173.90,42317
KRUK,20160407,173.00,179.85,172.70,177.50,11664
KRUK,20160408,177.10,186.00,177.10,186.00,23481
KRUK,20160411,186.00,186.00,178.60,180.50,17532
KRUK,20160412,181.00,183.75,180.15,181.00,43676
KRUK,20160413,180.00,187.45,180.00,187.45,40073
KRUK,20160414,186.10,186.10,183.15,185.90,20621
KRUK,20160415,185.90,186.90,184.30,185.35,41831
KRUK,20160418,185.35,187.50,183.05,187.45,23852
KRUK,20160419,187.00,188.50,185.90,187.25,14371
KRUK,20160420,187.35,191.45,185.25,190.50,25965
KRUK,20160421,190.00,192.00,186.50,187.45,25064
KRUK,20160422,187.40,192.95,185.20,185.25,31596
KRUK,20160425,186.20,187.80,184.10,185.30,11631
KRUK,20160426,186.90,189.50,185.40,185.90,74273
KRUK,20160427,188.40,189.40,184.75,189.00,7498
KRUK,20160428,189.00,190.05,185.45,186.00,35852
KRUK,20160429,185.15,190.50,185.15,190.50,35869
KRUK,20160502,190.00,190.65,187.90,188.50,49172
KRUK,20160504,188.00,190.30,186.60,188.50,90047
KRUK,20160505,188.50,189.00,186.00,188.15,13390
KRUK,20160506,187.40,189.00,186.10,188.00,17175
KRUK,20160509,188.00,189.85,186.00,188.70,58537
KRUK,20160510,188.20,189.45,186.00,188.05,99398
KRUK,20160511,188.05,191.25,187.20,191.25,45210
KRUK,20160512,190.00,190.90,188.20,190.30,33022
KRUK,20160513,190.00,190.95,189.10,190.90,18241
KRUK,20160516,190.90,190.90,187.00,189.00,47993
KRUK,20160517,189.00,194.00,189.00,192.00,50647
KRUK,20160518,192.00,194.00,190.20,194.00,48761
KRUK,20160519,193.90,193.90,189.00,189.05,13839
KRUK,20160520,187.00,192.00,187.00,190.00,19143
KRUK,20160523,190.00,191.45,189.65,191.45,25098
KRUK,20160524,190.00,192.50,190.00,190.45,29005
KRUK,20160525,191.20,192.50,189.80,191.00,18109
KRUK,20160527,191.00,192.50,190.65,192.00,36768
KRUK,20160530,192.40,192.40,188.25,188.40,25857
KRUK,20160531,188.05,191.50,188.00,191.40,28968
KRUK,20160601,191.00,191.00,186.15,187.00,19074
KRUK,20160602,186.10,188.50,185.55,187.00,12911
KRUK,20160603,187.00,190.00,186.55,188.20,12877
KRUK,20160606,190.00,191.00,188.05,188.50,18623
KRUK,20160607,188.50,192.30,188.50,192.00,104180
KRUK,20160608,192.00,192.00,190.65,191.70,45202
KRUK,20160609,191.95,192.70,190.10,192.70,23211
KRUK,20160610,192.70,192.90,191.35,192.65,8466
KRUK,20160613,192.65,192.65,188.25,189.50,13459
KRUK,20160614,190.00,190.95,181.15,184.90,25759
KRUK,20160615,184.90,191.40,184.30,189.95,26838
KRUK,20160616,190.00,190.30,187.10,187.85,23511
KRUK,20160617,188.00,194.95,187.60,194.90,42398
KRUK,20160620,194.90,194.90,189.65,194.60,33259
KRUK,20160621,194.50,194.95,193.75,194.95,28584
KRUK,20160622,194.95,194.95,193.65,194.75,11174
KRUK,20160623,194.40,210.00,194.40,204.25,47368
KRUK,20160624,186.95,194.95,185.10,191.70,48717
KRUK,20160627,193.00,194.00,191.55,192.80,10701
KRUK,20160628,192.80,199.55,192.80,199.20,33139
KRUK,20160629,200.95,203.80,198.25,200.00,41759
KRUK,20160630,200.00,201.80,198.50,201.80,9913
KRUK,20160701,199.90,201.80,199.00,201.80,87348
KRUK,20160704,198.25,198.25,195.60,196.95,12627
KRUK,20160705,197.00,197.60,195.05,196.00,7167
KRUK,20160706,195.90,198.00,195.00,195.00,11230
KRUK,20160707,194.95,204.00,193.10,203.50,93873
KRUK,20160708,203.75,206.00,201.10,204.50,16259
KRUK,20160711,203.00,207.50,203.00,207.40,39553
KRUK,20160712,207.55,211.25,207.55,209.00,112360
KRUK,20160713,209.00,209.80,207.45,208.30,130934
KRUK,20160714,208.00,208.95,206.85,207.20,39437
KRUK,20160715,207.00,207.00,206.00,206.00,3596
KRUK,20160718,206.00,208.00,204.90,207.30,41534
KRUK,20160719,208.00,208.00,205.05,205.40,13355
KRUK,20160720,205.95,206.00,203.15,206.00,17199
KRUK,20160721,207.00,207.00,204.95,206.30,10928
KRUK,20160722,206.40,207.00,205.00,206.25,11162
KRUK,20160725,206.00,206.20,204.80,205.30,60726
KRUK,20160726,205.30,206.95,204.40,204.50,7835
KRUK,20160727,205.05,207.00,203.50,205.30,51937
KRUK,20160728,205.50,208.00,204.50,207.00,8340
KRUK,20160729,207.50,210.00,206.30,209.50,67697
KRUK,20160801,210.00,211.00,209.00,211.00,13122
KRUK,20160802,211.00,224.95,211.00,219.10,39185
KRUK,20160803,219.00,223.10,217.10,222.80,27264
KRUK,20160804,222.80,224.00,219.20,220.90,7807
KRUK,20160805,220.10,223.80,217.85,222.80,13747
KRUK,20160808,221.20,222.00,213.40,218.65,22396
KRUK,20160809,217.05,224.80,217.05,224.80,31316
KRUK,20160810,222.00,225.00,222.00,224.80,21663
KRUK,20160811,225.00,225.45,223.00,225.45,18596
KRUK,20160812,225.30,232.85,225.30,232.85,14260
KRUK,20160816,235.00,238.45,233.50,235.15,107787
KRUK,20160817,235.15,235.95,232.50,234.00,31903
KRUK,20160818,236.85,236.85,234.05,235.35,17398
KRUK,20160819,236.90,236.90,234.05,235.45,8332
KRUK,20160822,236.50,242.65,235.50,241.00,30224
KRUK,20160823,242.40,249.55,241.35,246.00,17183
KRUK,20160824,247.00,248.10,243.00,244.00,30587
KRUK,20160825,246.50,247.95,245.70,247.00,25602
KRUK,20160826,249.00,249.50,246.60,248.30,24952
KRUK,20160829,240.00,240.00,225.50,226.90,67702
KRUK,20160830,225.00,225.00,215.50,216.10,77419
KRUK,20160831,216.00,225.55,216.00,225.00,45363
KRUK,20160901,226.00,231.65,225.25,231.00,71266
KRUK,20160902,230.05,234.30,230.05,232.55,48529
KRUK,20160905,233.50,239.80,232.25,236.50,35453
KRUK,20160906,240.00,246.60,239.10,245.90,66233
KRUK,20160907,245.00,245.00,240.45,241.80,29766
KRUK,20160908,243.00,247.85,242.00,247.75,28132
KRUK,20160909,246.75,246.75,240.00,242.25,34552
KRUK,20160912,240.40,244.40,235.30,235.30,22392
KRUK,20160913,236.50,241.00,232.20,235.00,20713
KRUK,20160914,235.15,240.60,235.15,237.50,15877
KRUK,20160915,236.10,244.00,236.00,243.00,26574
KRUK,20160916,243.00,252.85,242.20,252.45,145101
KRUK,20160919,250.00,255.95,246.80,250.10,54979
KRUK,20160920,249.10,253.50,249.00,249.00,122177
KRUK,20160921,249.00,250.85,247.00,247.00,54444
KRUK,20160922,249.65,251.70,247.50,249.50,61445
KRUK,20160923,249.80,252.90,248.45,249.00,111635
KRUK,20160926,250.00,251.00,248.20,249.05,41745
KRUK,20160927,248.50,249.35,247.90,249.00,38316
KRUK,20160928,248.00,252.95,243.65,244.50,80024
KRUK,20160929,244.40,248.90,235.00,235.00,69815
KRUK,20160930,228.00,240.30,225.20,238.00,141405
KRUK,20161003,239.85,240.90,235.25,235.25,45772
KRUK,20161004,235.30,237.80,230.00,232.00,35281
KRUK,20161005,230.20,235.95,228.85,235.00,34771
KRUK,20161006,236.80,236.80,228.00,230.00,22552
KRUK,20161007,230.40,232.80,222.15,223.50,48672
KRUK,20161010,225.00,230.00,221.00,226.00,35778
KRUK,20161011,227.35,230.30,220.20,224.15,45923
KRUK,20161012,220.10,226.00,217.10,217.85,48856
KRUK,20161013,219.90,222.90,214.65,215.15,41736
KRUK,20161014,215.30,225.80,215.30,216.30,33227
KRUK,20161017,220.00,223.90,218.30,222.70,19859
KRUK,20161018,223.75,228.90,221.50,227.50,32432
KRUK,20161019,229.00,229.00,225.00,228.25,62091
KRUK,20161020,229.60,229.80,227.00,227.35,46903
KRUK,20161021,228.95,228.95,217.55,218.30,23401
KRUK,20161024,218.55,223.00,216.80,218.50,27394
KRUK,20161025,220.00,220.90,216.10,218.05,67535
KRUK,20161026,218.20,219.50,215.20,218.25,20949
KRUK,20161027,217.15,220.25,217.15,220.25,40741
KRUK,20161028,220.25,220.25,217.00,217.00,6251
KRUK,20161031,217.20,227.50,217.20,227.50,48230
KRUK,20161102,226.50,226.50,204.65,206.00,57383
KRUK,20161103,211.00,211.00,200.00,200.95,57422
KRUK,20161104,200.00,200.00,192.20,198.90,60009
KRUK,20161107,200.40,203.65,196.05,200.05,25026
KRUK,20161108,200.05,200.05,196.25,198.65,56433
KRUK,20161109,191.00,198.00,191.00,194.75,42717
KRUK,20161110,197.00,200.00,195.10,198.45,52024
KRUK,20161114,198.95,204.25,195.30,200.00,51058
KRUK,20161115,201.00,202.40,196.10,201.50,26850
KRUK,20161116,202.90,202.90,196.20,198.30,33129
KRUK,20161117,198.75,198.90,194.25,195.60,33858
KRUK,20161118,196.95,197.30,193.00,197.30,43742
KRUK,20161121,195.00,200.00,194.00,198.30,28638
KRUK,20161122,198.70,204.20,198.55,202.00,72207
KRUK,20161123,201.30,209.85,200.15,209.00,39596
KRUK,20161124,210.00,218.85,207.50,216.00,54058
KRUK,20161125,218.00,219.00,211.55,213.35,17831
KRUK,20161128,214.95,214.95,207.55,210.80,19958
KRUK,20161129,210.75,210.75,207.00,208.50,27713
KRUK,20161130,209.00,210.20,201.35,205.00,57282
KRUK,20161201,204.00,205.00,199.00,203.60,22908
KRUK,20161202,206.15,207.50,203.00,207.20,38972
KRUK,20161205,209.40,210.50,205.60,206.20,14378
KRUK,20161206,206.30,210.00,203.05,210.00,23591
KRUK,20161207,210.10,217.10,205.10,210.95,40701
KRUK,20161208,210.95,216.80,209.50,215.00,25224
KRUK,20161209,214.00,219.60,214.00,219.50,52047
KRUK,20161212,219.50,224.90,218.50,224.00,28949
KRUK,20161213,223.05,227.60,223.05,226.90,55587
KRUK,20161214,227.00,228.70,224.00,227.80,57149
KRUK,20161215,227.00,227.00,222.25,224.35,16945
KRUK,20161216,214.90,229.00,212.70,228.00,41811
KRUK,20161219,226.00,237.35,223.15,235.00,64068
KRUK,20161220,233.00,238.80,232.00,238.80,57312
KRUK,20161221,238.80,238.95,237.00,237.00,25584
KRUK,20161222,237.35,237.35,228.15,232.05,15774
KRUK,20161223,232.05,237.50,232.00,235.90,10566
KRUK,20161227,235.00,238.75,235.00,235.75,8719
KRUK,20161228,235.10,240.00,235.10,240.00,14622
KRUK,20161229,239.00,240.00,234.50,234.50,24202
KRUK,20161230,231.00,237.50,230.10,237.00,32344
KRUK,20170102,236.90,236.90,234.50,236.75,11903
KRUK,20170103,234.00,236.80,233.00,235.55,13746
KRUK,20170104,236.00,236.10,230.80,231.10,15824
KRUK,20170105,230.00,236.60,229.35,231.90,27192
KRUK,20170109,233.70,234.95,230.05,232.00,15758
KRUK,20170110,232.00,237.00,230.00,237.00,24393
KRUK,20170111,237.00,244.90,236.15,242.00,84138
KRUK,20170112,243.85,247.90,238.05,240.00,25708
KRUK,20170113,240.00,243.00,237.10,241.95,26428
KRUK,20170116,241.00,245.00,240.25,242.00,8668
KRUK,20170117,243.00,245.00,241.60,242.70,4272
KRUK,20170118,244.00,246.45,241.10,244.60,13561
KRUK,20170119,245.40,249.00,245.05,247.95,12976
KRUK,20170120,247.90,248.90,242.25,243.85,17687
KRUK,20170123,245.00,252.85,244.35,246.85,23066
KRUK,20170124,245.25,251.70,245.25,249.90,40800
KRUK,20170125,248.50,250.00,247.95,249.50,12133
KRUK,20170126,249.90,251.70,248.55,249.15,12131
KRUK,20170127,250.00,250.00,248.00,249.90,4551
KRUK,20170130,249.75,249.80,239.25,243.90,15727
KRUK,20170131,243.00,247.70,240.35,245.80,30842
KRUK,20170201,245.80,247.85,235.00,240.45,23872
KRUK,20170202,240.00,246.80,239.90,242.50,8203
KRUK,20170203,242.75,243.90,235.10,235.10,12025
KRUK,20170206,234.25,239.70,230.00,233.90,14735
KRUK,20170207,231.30,233.90,226.55,230.60,46021
KRUK,20170208,229.00,237.15,227.15,237.15,54926
KRUK,20170209,237.60,246.20,237.60,243.50,24250
KRUK,20170210,243.05,245.30,238.00,244.00,6437
KRUK,20170213,244.00,248.00,244.00,246.65,13269
KRUK,20170214,246.40,246.50,241.05,246.15,17670
KRUK,20170215,243.05,245.35,242.10,242.45,133227
KRUK,20170216,242.05,246.50,242.05,244.00,27002
KRUK,20170217,245.00,248.00,244.00,248.00,38555
KRUK,20170220,248.00,250.00,246.80,249.60,33030
KRUK,20170221,249.60,249.60,246.15,248.00,7140
KRUK,20170222,248.30,249.55,248.10,249.00,28514
KRUK,20170223,249.45,249.90,246.55,248.20,17231
KRUK,20170224,248.10,248.95,243.95,246.00,35001
KRUK,20170227,242.50,248.20,242.00,247.00,25002
KRUK,20170228,248.00,248.00,240.65,245.00,47217
KRUK,20170301,246.85,246.90,236.15,239.05,31966
KRUK,20170302,238.00,242.85,235.00,236.50,40325
KRUK,20170303,237.00,237.10,234.00,235.80,23140
KRUK,20170306,236.50,237.15,230.40,233.05,26450
KRUK,20170307,233.05,235.05,228.20,233.40,46946
KRUK,20170308,231.45,233.95,230.50,231.10,27251
KRUK,20170309,231.00,237.30,231.00,235.00,35862
KRUK,20170310,236.80,245.60,236.75,243.25,33699
KRUK,20170313,244.40,246.35,240.10,245.00,58513
KRUK,20170314,245.95,245.95,240.15,243.05,30957
KRUK,20170315,243.00,243.95,237.25,240.50,30421
KRUK,20170316,240.95,241.20,238.50,238.70,38309
KRUK,20170317,240.00,240.00,238.05,239.25,36266
KRUK,20170320,239.25,239.95,235.40,238.60,13929
KRUK,20170321,240.00,243.40,236.80,238.50,76579
KRUK,20170322,235.30,236.40,228.50,233.00,71736
KRUK,20170323,232.00,238.90,232.00,235.70,64490
KRUK,20170324,235.00,236.25,232.50,232.75,41532
KRUK,20170327,231.55,232.00,227.10,228.50,50203
KRUK,20170328,236.00,241.00,236.00,239.90,58325
KRUK,20170329,240.00,240.75,238.00,240.20,6448
KRUK,20170330,239.35,241.00,238.10,240.00,137719
KRUK,20170331,240.20,240.95,239.35,240.60,98734
KRUK,20170403,240.00,242.75,238.60,241.35,11151
KRUK,20170404,242.00,242.95,240.35,242.80,26847
KRUK,20170405,244.00,254.30,244.00,254.00,83860
KRUK,20170406,254.30,262.95,253.50,261.95,104615
KRUK,20170407,262.50,266.00,258.10,259.10,127386
KRUK,20170410,259.10,259.10,254.90,257.00,12893
KRUK,20170411,256.00,256.45,251.10,252.00,15973
KRUK,20170412,253.90,255.30,250.10,251.30,49448
KRUK,20170413,251.00,253.75,249.55,251.85,85566
KRUK,20170418,253.00,256.15,253.00,254.00,61410
KRUK,20170419,254.20,263.00,254.00,260.30,50501
KRUK,20170420,262.20,269.95,261.45,269.75,46330
KRUK,20170421,270.90,275.00,270.00,273.75,102902
KRUK,20170424,274.00,280.00,269.95,278.65,30892
KRUK,20170425,280.00,282.75,280.00,281.35,56047
KRUK,20170426,283.00,285.35,279.15,285.35,125956
KRUK,20170427,289.70,289.70,276.05,276.45,39600
KRUK,20170428,276.00,293.95,276.00,286.00,66685
KRUK,20170502,290.00,305.20,289.00,293.30,58610
KRUK,20170504,294.00,303.20,292.00,295.60,200648
KRUK,20170505,296.10,299.55,291.10,293.85,66902
KRUK,20170508,295.90,297.95,289.00,294.00,53365
KRUK,20170509,293.60,294.15,289.40,290.80,20058
KRUK,20170510,288.00,297.70,281.25,296.00,62010
KRUK,20170511,295.00,318.50,293.30,317.90,133994
KRUK,20170512,317.00,319.25,310.25,315.35,32246
KRUK,20170515,315.40,325.00,315.15,315.65,50998
KRUK,20170516,315.70,317.15,304.10,305.85,64471
KRUK,20170517,305.30,313.85,303.05,306.80,56894
KRUK,20170518,303.70,303.70,294.75,297.00,72695
KRUK,20170519,298.00,306.80,294.00,303.55,46405
KRUK,20170522,302.00,306.70,297.80,299.55,26020
KRUK,20170523,299.55,304.00,297.60,300.70,21198
KRUK,20170524,298.70,302.95,298.15,298.55,9007
KRUK,20170525,301.75,302.00,297.05,298.90,14323
KRUK,20170526,299.40,301.80,297.10,300.55,58504
KRUK,20170529,300.55,300.55,297.25,299.00,9008
KRUK,20170530,299.00,299.85,297.00,297.80,6482
KRUK,20170531,299.00,309.95,298.45,300.90,56439
KRUK,20170601,301.00,316.00,301.00,314.00,18727
KRUK,20170602,312.00,321.60,311.70,320.50,28865
KRUK,20170605,320.90,324.75,311.00,314.05,17373
KRUK,20170606,314.05,319.90,309.20,309.45,27608
KRUK,20170607,311.00,312.95,306.35,310.20,43520
KRUK,20170608,310.80,310.80,307.15,308.75,27723
KRUK,20170609,309.00,311.70,305.05,306.20,45970
KRUK,20170612,306.50,307.65,295.40,299.00,18857
KRUK,20170613,297.50,307.45,297.50,305.00,21691
KRUK,20170614,305.00,309.15,304.95,306.75,13210
KRUK,20170616,307.85,310.30,300.00,300.00,41359
KRUK,20170619,302.10,304.85,299.00,300.00,40090
KRUK,20170620,300.00,301.75,297.70,300.25,73605
KRUK,20170621,300.50,303.00,297.50,302.00,52963
KRUK,20170622,303.00,311.80,302.95,307.80,31396
KRUK,20170623,309.80,309.80,305.00,307.00,16205
KRUK,20170626,308.45,315.90,305.75,315.90,78806
KRUK,20170627,316.00,321.20,310.00,313.00,46284
KRUK,20170628,312.00,312.00,305.00,310.90,28772
KRUK,20170629,310.00,310.75,299.00,304.00,49987
KRUK,20170630,305.75,308.00,302.80,308.00,15971
KRUK,20170703,308.80,308.80,300.65,304.90,9678
KRUK,20170704,304.00,304.00,295.35,299.30,53154
KRUK,20170705,300.00,303.40,300.00,303.40,58162
KRUK,20170706,303.00,305.00,302.25,303.60,44493
KRUK,20170707,303.60,303.70,298.20,301.00,17835
KRUK,20170710,301.10,307.00,301.10,305.00,40893
KRUK,20170711,305.70,306.95,301.25,301.45,19678
KRUK,20170712,301.55,307.00,300.15,307.00,60715
KRUK,20170713,306.50,308.55,300.85,301.95,27169
KRUK,20170714,301.95,307.00,301.70,306.95,58374
KRUK,20170717,307.00,316.35,307.00,313.40,37130
KRUK,20170718,312.45,319.50,312.00,319.50,43038
KRUK,20170719,319.50,321.80,315.50,317.50,61363
KRUK,20170720,323.50,333.45,321.30,324.00,101445
KRUK,20170721,322.55,331.50,322.55,330.65,68822
KRUK,20170724,329.00,337.35,327.40,334.00,63781
KRUK,20170725,334.10,339.95,332.40,332.40,46340
KRUK,20170726,336.00,337.95,332.00,334.70,45832
KRUK,20170727,334.10,342.80,334.00,338.50,75320
KRUK,20170728,340.00,342.65,334.05,337.50,56950
KRUK,20170731,340.00,349.35,338.40,344.00,34111
KRUK,20170801,347.45,348.00,340.00,348.00,33447
KRUK,20170802,348.45,348.55,346.60,347.70,52328
KRUK,20170803,348.50,349.70,340.95,343.00,20808
KRUK,20170804,343.10,344.90,328.00,330.25,52637
KRUK,20170807,330.25,339.00,330.25,336.80,44210
KRUK,20170808,337.40,341.45,336.00,340.00,39606
KRUK,20170809,341.00,341.00,328.55,331.80,30206
KRUK,20170810,332.00,339.80,330.20,333.50,58602
KRUK,20170811,332.25,339.65,330.20,335.10,37392
KRUK,20170814,339.50,339.50,332.00,332.05,29996
KRUK,20170816,336.70,339.45,333.50,337.45,12459
KRUK,20170817,338.95,343.95,337.60,338.85,79623
KRUK,20170818,338.85,342.20,335.25,338.30,18489
KRUK,20170821,337.30,341.95,333.40,335.20,14479
KRUK,20170822,334.50,338.00,333.15,337.00,30222
KRUK,20170823,337.00,339.45,331.20,336.50,14699
KRUK,20170824,338.50,341.00,335.35,337.50,15667
KRUK,20170825,338.75,340.00,335.05,338.80,24575
KRUK,20170828,338.80,340.00,335.35,336.40,25886
KRUK,20170829,335.80,339.20,320.10,322.25,34329
KRUK,20170830,327.00,334.00,325.15,334.00,59020
KRUK,20170831,337.00,343.80,337.00,340.95,79071
KRUK,20170901,340.00,341.00,337.30,339.00,55218
KRUK,20170904,339.20,344.65,337.05,338.90,36816
KRUK,20170905,340.80,340.80,333.00,339.00,26098
KRUK,20170906,344.90,344.90,301.10,317.10,378536
KRUK,20170907,310.00,313.75,297.15,299.55,258268
KRUK,20170908,299.45,315.05,295.15,310.00,152122
KRUK,20170911,310.50,314.40,300.40,301.00,109967
KRUK,20170912,304.35,306.10,300.20,304.50,130750
KRUK,20170913,304.80,311.50,304.65,311.00,118839
KRUK,20170914,310.50,313.00,301.10,302.95,90258
KRUK,20170915,301.50,308.00,298.65,298.65,300725
KRUK,20170918,301.00,305.25,300.00,303.80,54966
KRUK,20170919,304.50,305.05,301.05,301.10,89113
KRUK,20170920,301.50,304.30,301.05,303.20,53047
KRUK,20170921,303.00,303.00,298.00,300.60,67368
KRUK,20170922,298.50,298.50,276.00,282.00,195413
KRUK,20170925,281.00,287.00,277.20,284.50,109270
KRUK,20170926,284.50,284.50,279.20,280.10,31477
KRUK,20170927,280.00,287.55,280.00,285.00,44288
KRUK,20170928,287.85,298.85,286.50,290.00,107959
KRUK,20170929,295.00,297.70,288.60,293.45,153349
KRUK,20171002,295.00,297.70,290.05,297.70,20675
KRUK,20171003,298.00,298.00,291.55,295.05,45142
KRUK,20171004,296.50,302.70,295.55,299.00,46774
KRUK,20171005,301.00,309.85,296.45,308.95,61226
KRUK,20171006,310.00,310.90,296.00,296.00,46522
KRUK,20171009,296.00,298.00,286.00,289.90,56658
KRUK,20171010,291.15,296.65,287.20,295.00,67321
KRUK,20171011,296.50,296.50,290.00,290.00,32559
KRUK,20171012,292.80,294.50,283.15,284.00,58056
KRUK,20171013,286.10,287.00,281.10,281.10,31517
KRUK,20171016,284.70,286.10,280.35,283.80,57492
KRUK,20171017,284.10,285.50,280.40,282.30,32209
KRUK,20171018,284.50,284.50,278.30,280.00,31374
KRUK,20171019,280.95,281.45,267.35,270.00,110607
KRUK,20171020,270.00,272.20,260.25,270.00,144056
KRUK,20171023,265.30,270.10,258.15,261.50,72295
KRUK,20171024,261.50,269.90,258.30,260.00,90536
KRUK,20171025,262.50,270.00,260.00,270.00,50336
KRUK,20171026,270.00,272.95,268.00,269.00,67993
KRUK,20171027,269.45,270.50,267.20,269.00,95698
KRUK,20171030,271.00,275.35,265.55,268.55,32227
KRUK,20171031,268.90,280.00,268.15,279.00,61208
KRUK,20171102,287.25,296.45,283.35,292.90,63659
KRUK,20171103,294.05,296.00,291.75,293.40,41210
KRUK,20171106,294.10,294.10,281.25,291.00,53903
KRUK,20171107,293.95,300.00,287.15,294.70,89966
KRUK,20171108,294.90,298.40,293.70,295.00,55962
KRUK,20171109,295.00,295.05,286.25,290.00,34174
KRUK,20171110,286.90,294.45,278.25,289.35,44915
KRUK,20171113,287.00,289.80,280.95,280.95,31944
KRUK,20171114,281.80,287.00,278.05,285.00,29957
KRUK,20171115,282.00,287.90,273.05,279.00,24053
KRUK,20171116,280.00,280.00,274.40,275.60,11365
KRUK,20171117,275.60,283.50,274.15,282.00,39447
KRUK,20171120,284.40,289.95,282.65,287.50,21603
KRUK,20171121,290.00,291.85,283.00,291.20,24555
KRUK,20171122,293.00,293.70,287.60,292.00,24253
KRUK,20171123,291.00,293.35,287.40,287.50,7420
KRUK,20171124,287.50,291.35,285.10,286.55,12329
KRUK,20171127,289.80,291.95,287.30,289.90,21900
KRUK,20171128,289.05,291.00,283.95,287.50,40667
KRUK,20171129,289.95,289.95,280.00,281.00,79839
KRUK,20171130,282.00,282.85,278.00,282.00,53139
KRUK,20171201,282.15,282.95,276.25,277.95,29768
KRUK,20171204,276.10,277.75,265.60,269.60,45787
KRUK,20171205,270.85,273.50,267.10,268.85,16800
KRUK,20171206,267.95,269.05,263.10,265.45,25202
KRUK,20171207,264.45,272.55,264.45,269.40,52077
KRUK,20171208,258.20,270.75,256.00,268.00,28046
KRUK,20171211,267.00,271.80,263.90,266.60,89597
KRUK,20171212,268.80,271.70,265.85,269.50,35679
KRUK,20171213,267.15,270.00,262.15,264.65,30893
KRUK,20171214,263.95,269.00,260.10,268.00,42493
KRUK,20171215,267.00,267.00,260.30,266.00,65035
KRUK,20171218,260.00,264.90,256.00,257.00,55606
KRUK,20171219,253.00,254.50,240.45,244.00,335519
KRUK,20171220,240.00,246.90,229.50,232.90,207609
KRUK,20171221,232.00,245.50,228.30,240.00,242467
KRUK,20171222,240.00,256.95,240.00,254.00,85181
KRUK,20171227,255.00,255.00,246.15,253.00,96238
KRUK,20171228,253.60,258.55,252.65,256.00,57129
KRUK,20171229,256.00,262.85,255.00,261.50,39041
KRUK,20180103,269.20,269.20,263.00,265.00,21619
KRUK,20180104,265.00,266.80,260.20,263.00,39229
KRUK,20180105,262.60,263.00,260.40,261.20,38794
KRUK,20180108,260.00,264.80,253.40,255.00,63287
KRUK,20180109,254.00,256.00,248.80,252.00,118435
KRUK,20180110,255.60,255.60,222.80,231.00,262615
KRUK,20180111,232.00,232.20,213.00,218.80,404387
KRUK,20180112,218.80,221.80,202.40,207.00,300463
KRUK,20180115,208.80,218.00,208.20,216.20,157997
KRUK,20180116,217.20,217.20,211.20,214.00,217109
KRUK,20180117,213.80,220.80,205.60,220.00,131002
KRUK,20180118,221.20,223.00,214.40,214.80,82428
KRUK,20180119,217.60,223.80,215.00,222.40,114914
KRUK,20180122,222.20,229.40,222.00,226.00,81674
KRUK,20180123,227.80,229.60,223.40,228.00,78313
KRUK,20180124,228.60,238.80,226.80,238.80,76684
KRUK,20180125,239.00,241.60,231.40,233.00,74318
KRUK,20180126,233.40,236.40,226.40,228.60,46526
KRUK,20180129,229.20,230.60,222.60,224.00,74434
KRUK,20180130,224.00,232.60,223.20,228.00,27949
KRUK,20180131,230.00,230.00,224.60,230.00,57660
KRUK,20180201,226.80,230.80,222.20,222.20,39129
KRUK,20180202,222.40,223.80,218.00,218.00,41364
KRUK,20180205,217.00,220.00,212.40,218.00,22911
KRUK,20180206,212.60,213.20,205.20,212.00,67306
KRUK,20180207,210.40,213.60,209.20,210.00,51544
KRUK,20180208,209.20,211.80,206.40,210.00,36794
KRUK,20180209,206.40,209.60,205.00,205.40,159244
KRUK,20180212,207.20,208.60,203.20,208.40,74068
KRUK,20180213,208.40,216.20,207.20,215.00,35097
KRUK,20180214,217.00,223.60,215.60,223.40,33877
KRUK,20180215,224.00,225.40,220.00,220.00,27322
KRUK,20180216,221.60,223.00,213.40,215.00,25472
KRUK,20180219,215.60,217.00,214.60,215.40,9016
KRUK,20180220,216.00,216.20,207.60,210.20,41726
KRUK,20180221,211.00,216.40,210.20,212.00,53608
KRUK,20180222,213.00,217.00,209.20,213.80,17219
KRUK,20180223,214.00,217.40,211.40,213.80,42616
KRUK,20180226,213.80,215.60,209.20,210.60,14958
KRUK,20180227,210.60,214.80,210.60,214.00,10571
KRUK,20180228,213.20,214.40,209.40,212.00,38664
KRUK,20180301,210.00,211.40,205.00,205.40,30672
KRUK,20180302,203.00,215.20,203.00,207.60,40903
KRUK,20180305,206.20,216.00,206.20,212.60,32619
KRUK,20180306,213.00,228.00,210.00,226.40,109338
KRUK,20180307,227.00,229.00,220.40,227.40,45697
KRUK,20180308,227.80,237.80,227.40,235.20,137372
KRUK,20180309,236.60,236.60,230.00,231.00,25716
KRUK,20180312,231.00,232.80,217.40,221.00,68523
KRUK,20180313,220.60,226.80,217.40,219.20,21451
KRUK,20180314,219.00,219.00,212.40,218.00,15591
KRUK,20180315,218.20,223.60,218.20,222.20,33197
KRUK,20180316,222.80,229.00,221.20,226.60,49512
KRUK,20180319,226.00,226.00,208.60,213.00,54355
KRUK,20180320,212.00,214.80,205.60,209.00,34097
KRUK,20180321,210.60,218.20,208.80,215.40,93690
KRUK,20180322,216.40,226.80,213.80,215.00,86991
KRUK,20180323,211.20,218.20,207.60,209.00,42694
KRUK,20180326,209.00,211.60,205.00,208.40,28247
KRUK,20180327,210.00,212.40,206.60,208.00,111609
KRUK,20180328,205.40,214.80,203.20,213.00,99487
KRUK,20180329,211.80,221.00,211.20,218.00,61115
KRUK,20180403,217.00,238.40,214.60,232.00,126440
KRUK,20180404,230.80,240.00,230.00,239.40,112216
KRUK,20180405,240.00,262.20,239.40,258.20,156199
KRUK,20180406,257.00,261.40,249.00,254.60,97994
KRUK,20180409,255.00,258.40,249.20,256.00,49359
KRUK,20180410,256.00,256.20,240.60,242.00,109434
KRUK,20180411,241.00,243.40,236.00,237.00,32761
KRUK,20180412,237.00,248.80,236.20,244.60,97325
KRUK,20180413,245.20,246.20,241.80,245.00,34448
KRUK,20180416,245.00,250.40,242.20,248.20,41802
KRUK,20180417,249.20,249.80,242.20,243.40,67420
KRUK,20180418,243.40,248.00,241.20,243.00,15165
KRUK,20180419,244.00,247.40,240.40,243.40,34290
KRUK,20180420,244.00,246.00,237.20,239.00,30433
KRUK,20180423,239.00,239.00,230.00,233.80,47786
KRUK,20180424,230.60,233.00,228.60,229.00,43392
KRUK,20180425,228.40,230.40,225.60,229.00,103759
KRUK,20180426,228.00,229.00,220.60,225.00,80073
KRUK,20180427,235.00,237.40,225.80,229.00,147132
KRUK,20180430,227.80,231.40,221.00,230.00,52644
KRUK,20180502,226.00,229.80,225.00,227.60,25800
KRUK,20180504,230.00,232.60,221.60,225.00,48805
KRUK,20180507,224.00,225.60,215.40,224.00,37884
KRUK,20180508,223.00,223.00,217.40,220.00,82810
KRUK,20180509,220.80,224.60,217.00,223.00,42041
KRUK,20180510,223.00,231.60,221.20,229.00,61337
KRUK,20180511,227.40,234.40,227.20,233.00,73354
KRUK,20180514,232.00,236.00,230.60,232.80,78244
KRUK,20180515,232.20,232.40,226.20,230.00,69010
KRUK,20180516,227.20,230.00,226.60,229.00,40854
KRUK,20180517,227.00,229.60,224.00,228.20,28462
KRUK,20180518,229.80,229.80,225.80,229.00,13783
KRUK,20180521,229.00,229.20,225.40,227.40,17662
KRUK,20180522,228.00,229.00,225.80,228.20,18960
KRUK,20180523,225.80,229.80,225.20,228.40,56630
KRUK,20180524,228.00,232.40,227.60,230.40,105186
KRUK,20180525,231.00,237.00,230.00,231.20,20435
KRUK,20180528,230.80,234.80,230.00,232.40,22924
KRUK,20180529,232.00,233.00,228.40,232.80,59671
KRUK,20180530,230.00,232.60,226.40,232.60,97532
KRUK,20180601,231.20,231.60,228.00,230.40,35339
KRUK,20180604,232.20,232.20,226.20,226.80,51225
KRUK,20180605,228.00,229.80,225.60,228.00,60234
KRUK,20180606,228.60,230.20,216.40,221.80,124602
KRUK,20180607,222.60,226.00,221.60,224.20,165551
KRUK,20180608,222.20,225.60,222.00,224.40,81615
KRUK,20180611,225.00,227.20,223.00,223.00,106357
KRUK,20180612,223.00,226.60,223.00,226.60,56450
KRUK,20180613,226.60,231.00,225.60,227.80,18560
KRUK,20180614,227.40,234.80,227.40,233.80,36412
KRUK,20180615,231.60,233.00,223.00,223.00,60564
